%!PS-Adobe-3.0 EPSF-3.0
%%Creator: MATLAB, The MathWorks, Inc. Version 8.2.0.701 (R2013b). Operating System: Linux 3.8.0-44-generic #66~precise1-Ubuntu SMP Tue Jul 15 04:01:04 UTC 2014 x86_64.
%%Title: /media/Transcend/DATA/software/2015/CORA/testFunctions/setRepresentationsAndOperations/quadZonotopeTest_1.eps
%%CreationDate: 03/20/2015  17:48:25
%%DocumentNeededFonts: Helvetica
%%DocumentProcessColors: Cyan Magenta Yellow Black
%%LanguageLevel: 2
%%Pages: 1
%%BoundingBox:   107   296   503   495
%%EndComments

%%BeginProlog
% MathWorks dictionary
/MathWorks 160 dict begin
% definition operators
/bdef {bind def} bind def
/ldef {load def} bind def
/xdef {exch def} bdef
/xstore {exch store} bdef
% operator abbreviations
/c  /clip ldef
/cc /concat ldef
/cp /closepath ldef
/gr /grestore ldef
/gs /gsave ldef
/mt /moveto ldef
/np /newpath ldef
/cm /currentmatrix ldef
/sm /setmatrix ldef
/rm /rmoveto ldef
/rl /rlineto ldef
/s {show newpath} bdef
/sc {setcmykcolor} bdef
/sr /setrgbcolor ldef
/sg /setgray ldef
/w /setlinewidth ldef
/j /setlinejoin ldef
/cap /setlinecap ldef
/rc {rectclip} bdef
/rf {rectfill} bdef
% page state control
/pgsv () def
/bpage {/pgsv save def} bdef
/epage {pgsv restore} bdef
/bplot /gsave ldef
/eplot {stroke grestore} bdef
% orientation switch
/portraitMode 0 def /landscapeMode 1 def /rotateMode 2 def
% coordinate system mappings
/dpi2point 0 def
% font control
/FontSize 0 def
/FMS {/FontSize xstore findfont [FontSize 0 0 FontSize neg 0 0]
  makefont setfont} bdef
/reencode {exch dup where {pop load} {pop StandardEncoding} ifelse
  exch dup 3 1 roll findfont dup length dict begin
  { 1 index /FID ne {def}{pop pop} ifelse } forall
  /Encoding exch def currentdict end definefont pop} bdef
/isroman {findfont /CharStrings get /Agrave known} bdef
/FMSR {3 1 roll 1 index dup isroman {reencode} {pop pop} ifelse
  exch FMS} bdef
/csm {1 dpi2point div -1 dpi2point div scale neg translate
 dup landscapeMode eq {pop -90 rotate}
  {rotateMode eq {90 rotate} if} ifelse} bdef
% line types: solid, dotted, dashed, dotdash
/SO { [] 0 setdash } bdef
/DO { [.5 dpi2point mul 4 dpi2point mul] 0 setdash } bdef
/DA { [6 dpi2point mul] 0 setdash } bdef
/DD { [.5 dpi2point mul 4 dpi2point mul 6 dpi2point mul 4
  dpi2point mul] 0 setdash } bdef
% macros for lines and objects
/L {lineto stroke} bdef
/MP {3 1 roll moveto 1 sub {rlineto} repeat} bdef
/AP {{rlineto} repeat} bdef
/PDlw -1 def
/W {/PDlw currentlinewidth def setlinewidth} def
/PP {closepath eofill} bdef
/DP {closepath stroke} bdef
/MR {4 -2 roll moveto dup  0 exch rlineto exch 0 rlineto
  neg 0 exch rlineto closepath} bdef
/FR {MR stroke} bdef
/PR {MR fill} bdef
/L1i {{currentfile picstr readhexstring pop} image} bdef
/tMatrix matrix def
/MakeOval {newpath tMatrix currentmatrix pop translate scale
0 0 1 0 360 arc tMatrix setmatrix} bdef
/FO {MakeOval stroke} bdef
/PO {MakeOval fill} bdef
/PD {currentlinewidth 2 div 0 360 arc fill
   PDlw -1 eq not {PDlw w /PDlw -1 def} if} def
/FA {newpath tMatrix currentmatrix pop translate scale
  0 0 1 5 -2 roll arc tMatrix setmatrix stroke} bdef
/PA {newpath tMatrix currentmatrix pop	translate 0 0 moveto scale
  0 0 1 5 -2 roll arc closepath tMatrix setmatrix fill} bdef
/FAn {newpath tMatrix currentmatrix pop translate scale
  0 0 1 5 -2 roll arcn tMatrix setmatrix stroke} bdef
/PAn {newpath tMatrix currentmatrix pop translate 0 0 moveto scale
  0 0 1 5 -2 roll arcn closepath tMatrix setmatrix fill} bdef
/vradius 0 def /hradius 0 def /lry 0 def
/lrx 0 def /uly 0 def /ulx 0 def /rad 0 def
/MRR {/vradius xdef /hradius xdef /lry xdef /lrx xdef /uly xdef
  /ulx xdef newpath tMatrix currentmatrix pop ulx hradius add uly
  vradius add translate hradius vradius scale 0 0 1 180 270 arc 
  tMatrix setmatrix lrx hradius sub uly vradius add translate
  hradius vradius scale 0 0 1 270 360 arc tMatrix setmatrix
  lrx hradius sub lry vradius sub translate hradius vradius scale
  0 0 1 0 90 arc tMatrix setmatrix ulx hradius add lry vradius sub
  translate hradius vradius scale 0 0 1 90 180 arc tMatrix setmatrix
  closepath} bdef
/FRR {MRR stroke } bdef
/PRR {MRR fill } bdef
/MlrRR {/lry xdef /lrx xdef /uly xdef /ulx xdef /rad lry uly sub 2 div def
  newpath tMatrix currentmatrix pop ulx rad add uly rad add translate
  rad rad scale 0 0 1 90 270 arc tMatrix setmatrix lrx rad sub lry rad
  sub translate rad rad scale 0 0 1 270 90 arc tMatrix setmatrix
  closepath} bdef
/FlrRR {MlrRR stroke } bdef
/PlrRR {MlrRR fill } bdef
/MtbRR {/lry xdef /lrx xdef /uly xdef /ulx xdef /rad lrx ulx sub 2 div def
  newpath tMatrix currentmatrix pop ulx rad add uly rad add translate
  rad rad scale 0 0 1 180 360 arc tMatrix setmatrix lrx rad sub lry rad
  sub translate rad rad scale 0 0 1 0 180 arc tMatrix setmatrix
  closepath} bdef
/FtbRR {MtbRR stroke } bdef
/PtbRR {MtbRR fill } bdef
/stri 6 array def /dtri 6 array def
/smat 6 array def /dmat 6 array def
/tmat1 6 array def /tmat2 6 array def /dif 3 array def
/asub {/ind2 exch def /ind1 exch def dup dup
  ind1 get exch ind2 get sub exch } bdef
/tri_to_matrix {
  2 0 asub 3 1 asub 4 0 asub 5 1 asub
  dup 0 get exch 1 get 7 -1 roll astore } bdef
/compute_transform {
  dmat dtri tri_to_matrix tmat1 invertmatrix 
  smat stri tri_to_matrix tmat2 concatmatrix } bdef
/ds {stri astore pop} bdef
/dt {dtri astore pop} bdef
/db {2 copy /cols xdef /rows xdef mul dup 3 mul string
  currentfile 
  3 index 0 eq {/ASCIIHexDecode filter}
  {/ASCII85Decode filter 3 index 2 eq {/RunLengthDecode filter} if }
  ifelse exch readstring pop
  dup 0 3 index getinterval /rbmap xdef
  dup 2 index dup getinterval /gbmap xdef
  1 index dup 2 mul exch getinterval /bbmap xdef pop pop}bdef
/it {gs np dtri aload pop moveto lineto lineto cp c
  cols rows 8 compute_transform 
  rbmap gbmap bbmap true 3 colorimage gr}bdef
/il {newpath moveto lineto stroke}bdef
currentdict end def
%%EndProlog

%%BeginSetup
MathWorks begin

0 cap

end
%%EndSetup

%%Page: 1 1
%%BeginPageSetup
%%PageBoundingBox:   107   296   503   495
MathWorks begin
bpage
%%EndPageSetup

%%BeginObject: obj1
bplot

/dpi2point 12 def
portraitMode 1284 5940 csm

    0     0  4762  2381 rc
86 dict begin %Colortable dictionary
/c0 { 0.000000 0.000000 0.000000 sr} bdef
/c1 { 1.000000 1.000000 1.000000 sr} bdef
/c2 { 0.900000 0.000000 0.000000 sr} bdef
/c3 { 0.000000 0.820000 0.000000 sr} bdef
/c4 { 0.000000 0.000000 0.800000 sr} bdef
/c5 { 0.910000 0.820000 0.320000 sr} bdef
/c6 { 1.000000 0.260000 0.820000 sr} bdef
/c7 { 0.000000 0.820000 0.820000 sr} bdef
c0
1 j
1 sg
   0    0 4763 2382 rf
6 w
0 1932 3691 0 0 -1932 619 2110 4 MP
PP
-3691 0 0 1932 3691 0 0 -1932 619 2110 5 MP stroke
4 w
DO
SO
6 w
0 sg
 619 2110 mt 4310 2110 L
 619 2110 mt  619  178 L
 619 2110 mt  619 2073 L
%%IncludeResource: font Helvetica
/Helvetica /ISOLatin1Encoding 96 FMSR

 537 2233 mt 
(-2) s
1234 2110 mt 1234 2073 L
1152 2233 mt 
(-1) s
1849 2110 mt 1849 2073 L
1823 2233 mt 
(0) s
2464 2110 mt 2464 2073 L
2438 2233 mt 
(1) s
3079 2110 mt 3079 2073 L
3053 2233 mt 
(2) s
3694 2110 mt 3694 2073 L
3668 2233 mt 
(3) s
4310 2110 mt 4310 2073 L
4284 2233 mt 
(4) s
 619 2110 mt  655 2110 L
 475 2145 mt 
(-2) s
 619 1723 mt  655 1723 L
 475 1758 mt 
(-1) s
 619 1337 mt  655 1337 L
 531 1372 mt 
(0) s
 619  951 mt  655  951 L
 531  986 mt 
(1) s
 619  565 mt  655  565 L
 531  600 mt 
(2) s
 619  179 mt  655  179 L
 531  214 mt 
(3) s
gs 619 179 3692 1932 rc
/c8 { 0.000000 0.000000 1.000000 sr} bdef
c8
-615 -772 0 -387 369 -231 615 -193 615 -116 1230 0 615 772 0 386 
-369 232 -615 193 -615 116 -1230 0 3571 333 13 MP stroke
0.6 sg
-101 -1 -5 -6 370 -232 0 0 60 -15 39 -7 101 1 4 6 
-369 232 0 0 -60 15 -39 7 2346 1188 13 MP
PP
-110 -14 -5 -6 369 -231 0 -1 56 -12 38 -8 111 14 5 6 
-370 231 0 1 -55 12 -39 8 2281 1196 13 MP
PP
65 -16 38 -7 92 -11 5 6 -370 231 0 1 -65 16 -38 7 
-92 11 -5 -6 370 -232 0 0 2142 1405 13 MP
PP
82 -23 70 -17 38 -7 5 6 -369 231 -1 0 -82 23 -69 18 
-39 7 -4 -6 369 -232 0 0 2207 1382 13 MP
PP
3 -1 9 -2 168 -18 5 6 -369 232 -101 45 -2 1 -10 2 
-168 18 -5 -6 369 -232 101 -45 2145 1448 13 MP
PP
2 -1 159 -30 10 -2 4 6 -369 232 -120 51 -2 1 -159 30 
-9 2 -5 -6 369 -232 120 -51 2241 1397 13 MP
PP
9 -2 245 -33 5 6 -460 289 -3 1 -9 2 -245 32 -5 -6 
460 -289 3 0 2392 1422 11 MP
PP
2 -1 236 -45 9 -1 5 6 -369 231 -111 64 -2 0 -236 45 
-9 2 -5 -6 369 -232 111 -63 2481 1358 13 MP
PP
2 0 140 -40 9 -2 140 3 5 6 -369 232 -3 0 -139 40 
-10 2 -139 -3 -5 -6 369 -232 2193 1373 13 MP
PP
-130 9 -5 -6 369 -231 63 -26 2 -1 10 -1 129 -9 5 6 
-369 231 -62 26 -3 0 -9 2 2283 1178 13 MP
PP
-159 3 -4 -6 369 -232 2 0 10 -2 149 -28 158 -3 5 6 
-369 232 -2 0 -10 2 -149 28 2562 1141 13 MP
PP
9 -2 73 -13 149 -15 4 6 -369 231 -2 1 -10 2 -72 13 
-149 15 -5 -6 369 -231 3 -1 2200 1398 13 MP
PP
2 -1 217 -54 9 -2 149 15 5 6 -369 232 -2 0 -217 55 
-9 1 -149 -15 -5 -6 369 -231 2414 1324 13 MP
PP
-168 -9 -5 -6 369 -232 2 0 10 -2 226 -42 168 9 5 6 
-369 231 -3 1 -9 2 -226 42 2783 1093 13 MP
PP
-158 -27 -5 -6 369 -232 2 0 294 -69 9 -2 159 27 5 6 
-370 232 -2 1 -293 68 -10 2 2918 997 13 MP
PP
-178 -21 -5 -6 369 -232 3 -1 9 -1 303 -57 178 21 5 6 
-369 232 -3 1 -9 1 -303 57 3081 1030 13 MP
PP
101 8 4 7 -369 231 -2 1 -91 27 -10 2 -101 -8 -5 -7 
369 -231 3 -1 91 -27 10 -2 1873 1496 13 MP
PP
-24 -23 -5 -6 369 -232 3 -1 9 -1 101 -15 24 22 5 6 
-369 232 -2 1 -10 2 -101 15 2221 1203 13 MP
PP
110 20 5 6 -369 232 -2 1 -72 21 -10 2 -110 -21 -5 -6 
369 -231 2 -1 72 -21 10 -2 1806 1523 13 MP
PP
-34 -35 -5 -6 370 -232 2 -1 10 -2 81 -9 34 35 5 6 
-369 232 -3 1 -9 2 -82 9 2115 1212 13 MP
PP
2 -1 10 -2 178 -6 5 6 -369 232 -82 39 -3 1 -9 2 
-178 6 -5 -6 369 -232 82 -39 2068 1493 13 MP
PP
10 -2 187 6 5 6 -369 232 -63 33 -2 1 -10 1 -187 -6 
-5 -6 369 -231 63 -34 2 0 2008 1533 13 MP
PP
9 -3 3 -1 120 -5 5 6 -130 90 -369 232 -10 3 -2 1 
-120 5 -5 -6 130 -90 369 -232 2135 1533 13 MP
PP
9 -3 3 -1 139 -9 5 6 -120 103 -370 232 -9 3 -3 0 
-139 9 -5 -6 120 -102 370 -232 2279 1530 13 MP
PP
-10 2 -120 -9 -5 -6 369 -232 130 -52 2 0 10 -2 120 9 
5 6 -369 232 -130 52 -2 0 2283 1119 13 MP
PP
-101 -15 -5 -6 369 -232 120 -64 3 0 9 -2 101 15 5 6 
-369 232 -120 64 -3 0 -9 2 2187 1096 13 MP
PP
-110 3 -5 -6 53 -37 369 -232 2 -1 10 -1 110 -4 5 7 
-53 37 -369 232 -2 0 -10 2 2168 1175 13 MP
PP
-91 -3 -5 -6 43 -49 369 -232 3 -1 9 -2 92 3 5 7 
-44 49 -369 232 -2 0 -10 2 2072 1166 13 MP
PP
-10 2 -130 -22 -4 -6 369 -231 206 -67 3 0 9 -2 130 21 
5 6 -369 232 -207 66 -2 1 2485 1046 13 MP
PP
-111 -27 -5 -6 369 -232 197 -79 3 0 9 -2 111 27 5 6 
-369 232 -197 78 -3 1 -9 2 2379 1011 13 MP
PP
-255 -66 -5 -6 369 -232 130 -41 10 -3 2 -1 255 67 5 6 
-370 231 -129 42 -10 3 -2 0 2504 964 13 MP
PP
-264 -79 -5 -6 369 -231 10 -3 149 -46 2 0 265 78 5 6 
-370 232 -9 3 -149 45 -3 1 2649 912 13 MP
PP
369 -232 1 0 84 -22 38 -7 5 6 -53 59 -369 232 -1 0 
-84 22 -38 7 -5 -6 53 -59 2747 1130 13 MP
PP
369 -231 1 -1 89 -23 38 -7 5 6 -43 71 -369 232 -1 0 
-89 23 -38 8 -5 -6 43 -72 2841 1113 13 MP
PP
1 0 79 -20 38 -7 5 6 -62 47 -369 231 -1 1 -79 20 
-39 7 -5 -6 63 -47 369 -232 2289 1378 13 MP
PP
1 0 74 -19 39 -7 4 6 -369 232 -72 35 0 0 -75 19 
-38 7 -5 -6 369 -232 72 -35 2205 1392 13 MP
PP
139 -54 3 -1 9 -2 5 6 -369 232 -158 63 -140 54 -2 1 
-10 2 -5 -6 369 -232 159 -63 2491 1276 13 MP
PP
2 0 149 -43 10 -1 4 6 -369 231 -139 58 -2 1 -149 42 
-10 2 -5 -6 369 -232 140 -58 2356 1340 13 MP
PP
216 -69 3 -1 9 -2 5 6 -369 232 -149 75 -216 69 -3 1 
-9 2 -5 -6 369 -232 149 -75 2712 1213 13 MP
PP
2 -1 226 -56 10 -2 5 6 -369 232 -130 69 -3 1 -225 57 
-10 1 -5 -6 369 -231 130 -70 2587 1289 13 MP
PP
3 0 9 -2 197 -15 168 -4 5 6 -369 232 -2 1 -10 1 
-197 15 -168 4 -5 -6 369 -232 2741 1364 13 MP
PP
3 -1 9 -2 188 -27 91 11 5 6 -369 232 -3 0 -9 2 
-188 27 -91 -10 -5 -7 369 -231 2568 1361 13 MP
PP
10 -2 159 -16 177 -9 5 6 -369 232 -2 1 -10 1 -158 16 
-178 9 -5 -6 369 -232 2 0 2537 1373 13 MP
PP
9 -2 169 -21 81 -1 5 6 -369 232 -2 0 -10 2 -168 21 
-82 1 -5 -6 369 -231 3 -1 2373 1383 13 MP
PP
3 0 9 -2 245 -18 207 -3 5 6 -369 231 -3 1 -9 2 
-245 18 -207 3 -5 -6 369 -232 2991 1352 13 MP
PP
2 0 10 -2 235 -30 188 3 4 6 -369 231 -2 1 -10 2 
-235 30 -188 -3 -4 -6 369 -232 2779 1349 13 MP
PP
3 -1 9 -2 322 -32 217 9 5 6 -370 232 -2 0 -10 2 
-322 33 -216 -9 -5 -6 369 -232 3318 1325 13 MP
PP
2 -1 10 -2 312 -44 197 15 5 6 -369 232 -3 0 -9 2 
-313 45 -197 -15 -5 -6 370 -232 3096 1310 13 MP
PP
369 -232 1 0 99 -27 38 -7 5 6 -24 95 -369 232 -1 0 
-98 27 -39 7 -5 -6 24 -95 3043 1073 13 MP
PP
369 -231 0 -1 94 -25 39 -7 4 6 -33 84 -369 231 -1 0 
-94 25 -38 8 -5 -6 34 -84 2939 1094 13 MP
PP
369 -231 1 0 103 -28 39 -8 5 6 -15 108 -369 232 -1 0 
-103 28 -38 7 -5 -6 14 -108 3151 1052 13 MP
PP
369 -232 1 0 108 -29 39 -8 4 6 -4 120 -370 232 0 0 
-108 29 -39 7 -5 -6 5 -119 3264 1028 13 MP
PP
178 -69 2 -1 10 -2 5 6 -369 232 -130 66 -178 70 -2 1 
-10 1 -5 -6 369 -231 130 -67 2693 1204 13 MP
PP
-10 2 -4 -6 369 -231 168 -82 206 -81 3 -1 10 -1 4 6 
-369 231 -168 82 -207 81 -2 0 3379 815 13 MP
PP
197 -76 3 -1 9 -1 5 6 -120 78 -369 232 -197 75 -2 1 
-10 2 -5 -6 120 -79 369 -231 2895 1134 13 MP
PP
-9 2 -5 -6 369 -232 197 -93 187 -87 3 -1 9 -2 5 6 
-369 232 -197 93 -187 87 -3 1 3562 721 13 MP
PP
3 0 9 -2 216 -21 178 8 5 6 -369 232 -2 1 -10 2 
-216 21 -178 -9 -5 -6 369 -232 2962 1349 13 MP
PP
-101 -23 -4 -6 369 -232 2 -1 10 -2 206 -33 101 23 5 6 
-369 232 -2 1 -10 1 -207 34 3043 1073 13 MP
PP
2 -1 10 -2 235 -27 188 20 5 6 -370 232 -2 1 -10 2 
-235 27 -187 -21 -5 -6 369 -231 3202 1327 13 MP
PP
-110 -35 -5 -6 369 -232 2 -1 10 -1 226 -40 110 35 5 6 
-369 232 -2 1 -10 2 -226 39 3264 1028 13 MP
PP
2 0 10 -2 225 -9 255 -6 5 6 -369 232 -3 0 -9 2 
-226 9 -255 6 -5 -6 370 -232 3221 1349 13 MP
PP
2 0 10 -2 245 -15 264 6 5 6 -369 232 -3 0 -9 2 
-245 15 -265 -6 -4 -6 369 -232 3471 1340 13 MP
PP
3 -1 9 -2 332 -20 235 3 5 6 -369 232 -2 0 -10 2 
-332 21 -235 -3 -5 -6 369 -232 3558 1334 13 MP
PP
2 -1 10 -2 341 -8 255 -3 4 6 -369 232 -2 0 -10 2 
-341 9 -255 3 -4 -6 369 -232 3817 1337 13 MP
PP
5 6 -369 231 -10 3 -2 1 -15 -6 -62 -33 -5 -7 369 -231 
10 -3 2 -1 14 6 63 34 1580 1503 13 MP
PP
-369 232 -9 3 -92 18 -2 1 -53 -21 -5 -6 369 -232 10 -3 
91 -18 3 -1 53 21 4 6 1595 1510 13 MP
PP
-369 231 -62 30 -10 3 -2 1 -72 -45 -5 -6 369 -232 63 -30 
9 -3 3 -1 72 46 4 6 1571 1491 13 MP
PP
-81 -57 -5 -6 369 -232 139 -54 10 -3 2 -1 82 58 5 6 
-369 231 -140 55 -9 3 -3 0 2149 1166 13 MP
PP
-4 6 -370 232 -9 3 -3 1 -81 -30 -5 -6 5 -6 369 -232 
9 -3 3 0 82 29 4 6 1643 1537 13 MP
PP
369 -232 82 -30 9 -3 3 0 72 17 5 6 -369 232 -82 30 
-10 3 -2 1 -72 -18 -5 -6 2192 1295 13 MP
PP
2 0 91 41 5 6 -369 232 -10 3 -72 18 -2 1 -91 -42 
-5 -6 369 -232 10 -3 72 -18 1736 1578 13 MP
PP
-101 -54 -5 -6 369 -232 10 -3 149 -42 2 0 101 53 5 6 
-369 232 -10 3 -149 42 -2 1 2235 1229 13 MP
PP
5 6 -369 232 -10 3 -2 1 -24 -19 -44 -36 -5 -6 370 -232 
9 -3 3 -1 24 19 43 36 1532 1461 13 MP
PP
34 30 4 6 25 41 -370 232 -9 3 -3 0 -33 -30 -5 -6 
-24 -41 369 -231 10 -3 2 -1 1561 1485 13 MP
PP
-369 231 -2 1 -10 2 -43 -3 -53 -59 -5 -6 369 -232 3 -1 
9 -2 43 3 53 60 5 6 1537 1443 13 MP
PP
-369 232 -2 1 -10 2 -63 3 -43 -47 -5 -6 369 -232 3 -1 
9 -2 63 -3 43 47 5 6 1585 1453 13 MP
PP
53 48 4 6 -52 43 -369 231 -10 3 -2 1 -53 -49 -5 -6 
53 -42 369 -232 9 -3 3 0 1580 1503 13 MP
PP
-43 54 -369 232 -10 3 -2 0 -5 -6 -33 -52 43 -54 369 -232 
9 -3 3 -1 5 6 33 53 1494 1402 13 MP
PP
369 -231 130 -67 10 -3 2 0 63 61 4 6 -369 231 -129 67 
-10 3 -2 0 -63 -61 -5 -6 2149 1166 13 MP
PP
-43 -65 120 -78 369 -232 9 -3 3 0 5 6 43 64 -120 79 
-369 231 -10 3 -2 1 -5 -6 2038 1034 13 MP
PP
10 -3 2 -1 120 23 5 6 15 30 -370 232 -9 3 -3 0 
-120 -22 -5 -6 -14 -30 369 -232 1972 1629 13 MP
PP
2 0 111 10 5 6 -63 54 -369 232 -9 3 -3 0 -110 -10 
-5 -6 62 -54 369 -232 10 -3 1943 1596 13 MP
PP
91 6 130 35 5 6 -369 231 -10 3 -2 1 -92 -6 -129 -34 
-5 -7 369 -231 10 -3 2 -1 2056 1645 13 MP
PP
2 -1 168 -18 140 47 4 6 -369 231 -9 3 -3 1 -168 18 
-139 -46 -5 -6 369 -232 10 -3 2231 1632 13 MP
PP
5 6 5 18 -369 232 -10 3 -2 0 -101 -26 -5 -6 -5 -18 
369 -232 10 -3 2 0 101 26 1734 1578 13 MP
PP
91 14 5 6 -369 231 -72 43 -10 3 -2 0 -92 -14 -4 -6 
369 -231 72 -43 9 -3 3 0 1825 1580 13 MP
PP
3 0 81 -6 111 38 5 6 -369 231 -10 3 -2 1 -82 6 
-111 -38 -5 -6 370 -232 9 -3 1924 1604 13 MP
PP
10 -3 158 -30 3 0 120 50 5 6 -369 232 -10 3 -159 30 
-2 0 -120 -50 -5 -6 369 -232 2097 1577 13 MP
PP
139 18 5 6 24 43 -369 231 -10 3 -2 1 -139 -19 -5 -6 
-24 -42 369 -232 10 -3 2 0 2104 1657 13 MP
PP
369 -232 9 -3 3 0 130 7 4 6 -52 66 -370 232 -9 3 
-3 0 -129 -6 -5 -7 53 -66 2456 1374 13 MP
PP
-34 -54 370 -232 9 -3 3 0 158 15 5 6 34 54 -369 232 
-10 3 -3 0 -158 -15 -5 -6 2615 1389 13 MP
PP
-4 -7 43 -78 369 -232 10 -3 2 0 149 3 5 6 -43 78 
-370 232 -9 3 -3 1 -149 -3 2649 1298 13 MP
PP
369 -232 10 -3 2 -1 101 19 149 30 5 6 -369 232 -10 3 
-2 1 -101 -19 -149 -30 -5 -6 2591 1446 13 MP
PP
-5 -6 370 -232 9 -3 3 -1 177 -6 159 43 5 6 -369 232 
-10 3 -2 1 -178 6 -159 -43 2769 1440 13 MP
PP
2 -1 168 27 111 31 5 6 -369 231 -10 3 -2 1 -169 -27 
-110 -30 -5 -7 369 -231 10 -3 2385 1714 13 MP
PP
2 -1 187 6 178 39 5 7 -369 231 -10 3 -2 1 -188 -6 
-177 -40 -5 -6 369 -231 10 -3 2577 1726 13 MP
PP
-10 3 -2 0 -63 -66 -5 -6 34 -52 369 -231 10 -3 2 -1 
63 67 4 6 -33 51 -369 232 1896 1015 13 MP
PP
-10 3 -2 0 -73 -78 -4 -6 52 -55 370 -232 9 -3 3 0 
72 78 4 6 -52 55 -369 232 1944 954 13 MP
PP
43 -39 369 -231 10 -3 2 -1 140 42 5 6 -44 40 -369 231 
-9 3 -3 1 -139 -43 -5 -6 2120 1133 13 MP
PP
62 -43 369 -231 10 -3 2 -1 149 55 5 6 -62 42 -369 232 
-10 3 -2 1 -149 -55 -5 -6 2187 1096 13 MP
PP
-9 3 -3 1 -52 -54 -5 -7 14 -47 369 -232 10 -3 2 0 
53 54 5 6 -14 48 -370 231 1868 1073 13 MP
PP
-369 232 -10 3 -2 0 -43 -42 -5 -6 -5 -44 369 -232 10 -3 
2 0 44 42 4 6 5 44 1489 1358 13 MP
PP
-53 -15 -5 -6 24 -73 369 -232 3 -1 9 -2 53 16 5 6 
-24 73 -369 232 -3 1 -9 1 1937 1130 13 MP
PP
-72 -9 -5 -6 34 -61 369 -232 2 -1 10 -2 72 9 5 7 
-34 61 -369 232 -2 1 -10 1 1995 1151 13 MP
PP
-369 231 -10 3 -2 1 -5 -6 15 -91 24 -63 369 -232 9 -3 
3 0 5 6 -15 90 -24 64 1537 1150 13 MP
PP
-10 3 -2 1 -5 -6 5 -103 43 -67 369 -232 9 -3 3 0 
5 6 -5 103 -43 67 -369 231 1944 846 13 MP
PP
-9 3 -3 0 -4 -6 14 -75 91 -115 369 -231 10 -3 2 -1 
5 6 -14 76 -91 114 -370 232 1993 798 13 MP
PP
-10 3 -2 0 -5 -6 33 -79 82 -126 369 -232 10 -3 2 -1 
5 7 -34 79 -81 126 -369 232 2021 713 13 MP
PP
-9 3 -3 0 -5 -6 5 -59 24 -79 369 -232 10 -3 2 0 
5 6 -5 60 -24 78 -369 232 1887 988 13 MP
PP
-9 3 -3 1 -5 -7 -14 -56 34 -66 369 -232 9 -3 3 0 
5 6 14 56 -34 66 -369 232 1887 1054 13 MP
PP
-5 -72 101 -103 369 -231 10 -3 2 -1 5 6 5 72 -101 103 
-369 231 -10 3 -2 1 -5 -6 2000 882 13 MP
PP
-9 3 -3 0 -4 -6 -24 -68 110 -91 369 -231 10 -3 2 -1 
5 6 24 68 -110 91 -370 232 1993 957 13 MP
PP
-4 -6 91 -62 369 -232 10 -3 2 0 91 102 5 7 -91 62 
-369 231 -10 3 -2 1 -92 -103 2202 921 13 MP
PP
-5 -6 72 -58 369 -232 10 -3 2 -1 82 91 4 6 -72 58 
-369 232 -9 3 -3 1 -81 -91 2105 977 13 MP
PP
369 -232 101 -50 9 -3 3 -1 168 79 5 6 -369 232 -101 50 
-10 3 -2 0 -169 -78 -4 -6 2379 1011 13 MP
PP
369 -232 82 -46 10 -3 2 -1 159 66 5 6 -370 232 -81 47 
-10 3 -2 0 -159 -66 -5 -6 2274 1055 13 MP
PP
-5 -6 369 -232 111 -66 10 -3 2 0 101 115 5 6 -369 231 
-111 66 -10 3 -2 1 -101 -115 2317 861 13 MP
PP
369 -231 130 -70 9 -3 3 0 110 126 5 7 -369 231 -130 70 
-10 3 -2 0 -111 -127 -4 -6 2456 804 13 MP
PP
369 -231 120 -54 9 -3 3 0 178 90 5 6 -370 232 -120 54 
-9 3 -3 0 -178 -91 -4 -6 2504 964 13 MP
PP
370 -232 139 -57 10 -3 2 -1 187 103 5 6 -369 232 -139 57 
-10 3 -2 0 -188 -102 -5 -6 2649 912 13 MP
PP
-10 3 -2 1 -5 -6 -14 -127 81 -74 370 -232 9 -3 3 -1 
4 6 15 127 -82 74 -369 232 2079 689 13 MP
PP
-10 3 -2 0 -5 -6 -5 -114 63 -71 369 -232 9 -3 3 0 
5 6 4 115 -62 70 -369 232 2002 769 13 MP
PP
-9 3 -3 1 -5 -7 63 -150 72 -87 369 -231 10 -3 2 -1 
5 6 -63 151 -72 86 -369 232 2137 532 13 MP
PP
-10 3 -2 0 -5 -6 72 -139 53 -82 369 -232 9 -3 3 -1 
5 7 -72 138 -53 83 -369 232 2069 624 13 MP
PP
-10 3 -2 0 -5 -6 -24 -138 101 -78 369 -232 10 -3 2 0 
5 6 24 138 -101 78 -369 232 2175 605 13 MP
PP
-34 -151 120 -81 369 -232 10 -3 2 -1 5 6 34 151 -120 82 
-370 232 -9 3 -3 0 -4 -6 2307 520 13 MP
PP
-10 3 -2 0 -5 -6 53 -163 91 -89 369 -232 10 -3 2 -1 
5 6 -53 163 -91 90 -369 232 2223 436 13 MP
PP
-10 3 -2 0 -5 -6 43 -175 111 -94 369 -231 10 -3 2 -1 
5 6 -43 175 -111 94 -369 232 2329 336 13 MP
PP
gr

0.6 sg
0 sg
2436 2358 mt 
(a) s
 399 1172 mt  -90 rotate
(b) s
90 rotate

end %%Color Dict

eplot
%%EndObject

epage
end

showpage

%%Trailer
%%EOF
