%!PS-Adobe-3.0 EPSF-3.0
%%Creator: cairo 1.14.6 (http://cairographics.org)
%%CreationDate: Thu Aug  9 10:36:39 2018
%%Pages: 1
%%DocumentData: Clean7Bit
%%LanguageLevel: 2
%%BoundingBox: 12 8 984 474
%%EndComments
%%BeginProlog
save
50 dict begin
/q { gsave } bind def
/Q { grestore } bind def
/cm { 6 array astore concat } bind def
/w { setlinewidth } bind def
/J { setlinecap } bind def
/j { setlinejoin } bind def
/M { setmiterlimit } bind def
/d { setdash } bind def
/m { moveto } bind def
/l { lineto } bind def
/c { curveto } bind def
/h { closepath } bind def
/re { exch dup neg 3 1 roll 5 3 roll moveto 0 rlineto
      0 exch rlineto 0 rlineto closepath } bind def
/S { stroke } bind def
/f { fill } bind def
/f* { eofill } bind def
/n { newpath } bind def
/W { clip } bind def
/W* { eoclip } bind def
/BT { } bind def
/ET { } bind def
/pdfmark where { pop globaldict /?pdfmark /exec load put }
    { globaldict begin /?pdfmark /pop load def /pdfmark
    /cleartomark load def end } ifelse
/BDC { mark 3 1 roll /BDC pdfmark } bind def
/EMC { mark /EMC pdfmark } bind def
/cairo_store_point { /cairo_point_y exch def /cairo_point_x exch def } def
/Tj { show currentpoint cairo_store_point } bind def
/TJ {
  {
    dup
    type /stringtype eq
    { show } { -0.001 mul 0 cairo_font_matrix dtransform rmoveto } ifelse
  } forall
  currentpoint cairo_store_point
} bind def
/cairo_selectfont { cairo_font_matrix aload pop pop pop 0 0 6 array astore
    cairo_font exch selectfont cairo_point_x cairo_point_y moveto } bind def
/Tf { pop /cairo_font exch def /cairo_font_matrix where
      { pop cairo_selectfont } if } bind def
/Td { matrix translate cairo_font_matrix matrix concatmatrix dup
      /cairo_font_matrix exch def dup 4 get exch 5 get cairo_store_point
      /cairo_font where { pop cairo_selectfont } if } bind def
/Tm { 2 copy 8 2 roll 6 array astore /cairo_font_matrix exch def
      cairo_store_point /cairo_font where { pop cairo_selectfont } if } bind def
/g { setgray } bind def
/rg { setrgbcolor } bind def
/d1 { setcachedevice } bind def
%%EndProlog
%%BeginSetup
%%EndSetup
%%Page: 1 1
%%BeginPageSetup
%%PageBoundingBox: 12 8 984 474
%%EndPageSetup
q 12 8 972 466 rectclip q
0 0.6 1 rg
183.766 427.466 m 183.766 402.364 151.895 382.017 112.578 382.017 c 73.258
 382.017 41.387 402.364 41.387 427.466 c 41.387 452.571 73.258 472.919 112.578
 472.919 c 151.895 472.919 183.766 452.571 183.766 427.466 c h
183.766 427.466 m f
0 g
94.012 430.638 m 94.395 430.716 l 94.77 430.81 l 95.137 430.911 l 95.5 
431.021 l 95.848 431.149 l 96.188 431.278 l 96.52 431.423 l 96.844 431.575
 l 97.16 431.735 l 97.465 431.899 l 97.762 432.075 l 98.043 432.263 l 98.316
 432.458 l 98.578 432.665 l 98.836 432.868 l 99.07 433.087 l 99.301 433.31
 l 99.516 433.54 l 99.719 433.778 l 99.906 434.017 l 100.086 434.263 l 100.246
 434.517 l 100.391 434.774 l 100.527 435.036 l 100.645 435.31 l 100.746 
435.579 l 100.84 435.853 l 100.91 436.134 l 100.969 436.415 l 101.012 436.704
 l 101.035 436.993 l 101.047 437.29 l 101.047 440.974 97.148 444.442 91.641
 444.442 c 91.352 443.134 l 95.457 443.134 96.938 439.524 96.938 437.29 
c 96.938 434.567 94.863 431.013 90.16 431.013 c 84.02 431.013 l 84.02 430.087
 l 91.98 430.087 l 96.18 430.087 97.957 426.142 97.957 423.302 c 97.957 
420.298 95.754 416.821 91.395 416.821 c 86.094 416.821 l 84.105 416.821 
84.02 417.118 84.02 418.521 c 84.02 441.431 l 84.02 442.833 84.105 443.134
 86.094 443.134 c 91.352 443.134 l 91.641 444.442 l 76.137 444.442 l 76.137
 443.134 l 77.156 443.134 l 80.414 443.134 80.508 442.665 80.508 441.142
 c 80.508 418.817 l 80.508 417.29 80.414 416.821 77.156 416.821 c 76.137
 416.821 l 76.137 415.513 l 92.746 415.513 l 98.383 415.513 102.191 419.278
 102.191 423.267 c 102.191 426.95 98.715 430.122 94.012 430.638 c h
94.012 430.638 m f*
106.75 430.001 m 106.77 429.185 l 106.828 428.376 l 106.93 427.595 l 107.059
 426.821 l 107.227 426.064 l 107.43 425.317 l 107.68 424.595 l 107.941 423.888
 l 108.246 423.208 l 108.578 422.536 l 108.945 421.888 l 109.336 421.267
 l 109.754 420.665 l 110.203 420.087 l 110.672 419.532 l 111.164 418.997
 l 111.684 418.497 l 112.227 418.021 l 112.789 417.567 l 113.367 417.146
 l 113.961 416.751 l 114.582 416.388 l 115.211 416.056 l 115.867 415.759
 l 116.531 415.485 l 117.203 415.247 l 117.898 415.044 l 118.598 414.88 
l 119.312 414.747 l 120.027 414.653 l 120.758 414.591 l 121.488 414.575 
l 128.395 414.575 132.543 420.47 132.543 425.384 c 132.543 425.81 132.543
 426.099 132 426.099 c 131.531 426.099 131.531 425.853 131.488 425.427 c
 131.148 419.364 126.617 415.896 122 415.896 c 119.414 415.896 111.113 417.329
 111.113 429.95 c 111.113 442.622 119.371 444.06 121.957 444.06 c 126.574
 444.06 130.34 440.208 131.191 434.024 c 131.277 433.431 131.277 433.302
 131.871 433.302 c 132.543 433.302 132.543 433.431 132.543 434.321 c 132.543
 444.357 l 132.543 445.079 132.543 445.376 132.086 445.376 c 131.914 445.376
 131.746 445.376 131.402 444.868 c 129.285 441.735 l 127.723 443.259 125.562
 445.376 121.488 445.376 c 113.57 445.376 106.75 438.642 106.75 430.001 
c h
106.75 430.001 m f*
144.926 428.419 m 144.926 428.685 l 144.918 428.708 l 144.918 428.794 l
 144.91 428.81 l 144.91 428.86 l 144.898 428.888 l 144.898 428.923 l 144.883
 428.966 l 144.875 428.997 l 144.867 429.032 l 144.848 429.06 l 144.832 
429.083 l 144.816 429.11 l 144.789 429.134 l 144.773 429.153 l 144.746 429.169
 l 144.711 429.185 l 144.652 429.204 l 144.609 429.22 l 144.566 429.22 l
 144.551 429.228 l 144.527 429.228 l 144.5 429.235 l 144.398 429.235 l 144.371
 429.243 l 144.043 429.243 l 142.137 427.384 139.441 427.349 138.223 427.349
 c 138.223 426.286 l 138.938 426.286 140.895 426.286 142.52 427.11 c 142.52
 411.989 l 142.52 411.013 142.52 410.622 139.559 410.622 c 138.43 410.622
 l 138.43 409.56 l 149.016 409.56 l 149.016 410.622 l 147.895 410.622 l 
144.926 410.622 144.926 411.013 144.926 411.989 c h
144.926 428.419 m f*
1 0 0 rg
48.777 344.685 127.598 -84.879 re f
0 g
83.66 318.677 m 83.625 318.72 l 83.59 318.759 l 83.559 318.802 l 83.531
 318.837 l 83.496 318.88 l 83.473 318.915 l 83.445 318.939 l 83.422 318.974
 l 83.395 318.997 l 83.359 319.024 l 83.336 319.048 l 83.309 319.067 l 83.285
 319.091 l 83.258 319.11 l 83.234 319.126 l 83.199 319.134 l 83.176 319.153
 l 83.105 319.169 l 83.07 319.185 l 83.031 319.192 l 82.996 319.192 l 82.953
 319.204 l 82.902 319.212 l 82.809 319.212 l 82.758 319.22 l 75.223 319.22
 l 75.223 317.911 l 76.457 317.911 l 77.094 317.911 77.938 317.868 78.574
 317.825 c 79.551 317.696 79.586 317.653 79.586 316.849 c 79.586 294.735
 l 79.586 293.599 79.586 291.599 75.223 291.599 c 75.223 290.29 l 85.137
 290.29 l 85.137 291.599 l 80.777 291.599 80.777 293.599 80.777 294.735 
c 80.777 316.763 l 80.988 316.548 81.031 316.517 81.203 316.259 c 98.48 
290.841 l 98.863 290.333 98.906 290.29 99.203 290.29 c 99.801 290.29 99.801
 290.587 99.801 291.396 c 99.801 314.771 l 99.801 315.919 99.801 317.911
 104.16 317.911 c 104.16 319.22 l 94.246 319.22 l 94.246 317.911 l 98.609
 317.911 98.609 315.919 98.609 314.771 c 98.609 296.685 l h
83.66 318.677 m f*
107.664 304.778 m 107.684 303.962 l 107.742 303.157 l 107.844 302.372 l
 107.973 301.599 l 108.141 300.841 l 108.348 300.095 l 108.594 299.372 l
 108.855 298.665 l 109.164 297.985 l 109.492 297.314 l 109.859 296.669 l
 110.25 296.048 l 110.668 295.442 l 111.117 294.864 l 111.586 294.314 l 
112.078 293.774 l 112.598 293.274 l 113.141 292.798 l 113.703 292.349 l 
114.281 291.923 l 114.875 291.532 l 115.496 291.165 l 116.125 290.833 l 
116.781 290.536 l 117.445 290.263 l 118.117 290.024 l 118.812 289.821 l 
119.512 289.661 l 120.227 289.524 l 120.941 289.431 l 121.672 289.372 l 
122.402 289.353 l 129.309 289.353 133.457 295.247 133.457 300.161 c 133.457
 300.587 133.457 300.876 132.914 300.876 c 132.445 300.876 132.445 300.63
 132.402 300.204 c 132.062 294.142 127.531 290.673 122.914 290.673 c 120.328
 290.673 112.027 292.11 112.027 304.728 c 112.027 317.399 120.285 318.837
 122.871 318.837 c 127.488 318.837 131.254 314.985 132.105 308.802 c 132.191
 308.208 132.191 308.079 132.785 308.079 c 133.457 308.079 133.457 308.208
 133.457 309.099 c 133.457 319.134 l 133.457 319.857 133.457 320.153 133
 320.153 c 132.828 320.153 132.66 320.153 132.32 319.646 c 130.199 316.517
 l 128.637 318.036 126.477 320.153 122.402 320.153 c 114.484 320.153 107.664
 313.419 107.664 304.778 c h
107.664 304.778 m f*
145.84 303.2 m 145.84 303.462 l 145.832 303.489 l 145.832 303.571 l 145.824
 303.591 l 145.824 303.642 l 145.812 303.665 l 145.812 303.7 l 145.797 303.743
 l 145.789 303.778 l 145.781 303.81 l 145.762 303.837 l 145.746 303.86 l
 145.73 303.888 l 145.703 303.911 l 145.688 303.931 l 145.66 303.946 l 145.629
 303.962 l 145.602 303.974 l 145.566 303.982 l 145.523 303.997 l 145.484
 303.997 l 145.465 304.005 l 145.441 304.005 l 145.414 304.017 l 145.312
 304.017 l 145.285 304.024 l 144.957 304.024 l 143.051 302.161 140.355 302.126
 139.137 302.126 c 139.137 301.064 l 139.852 301.064 141.809 301.064 143.434
 301.888 c 143.434 286.771 l 143.434 285.79 143.434 285.399 140.473 285.399
 c 139.344 285.399 l 139.344 284.337 l 149.93 284.337 l 149.93 285.399 l
 148.809 285.399 l 145.84 285.399 145.84 285.79 145.84 286.771 c h
145.84 303.2 m f*
1 0 0 rg
48.777 94.243 127.598 -84.883 re f
0 g
83.184 68.232 m 83.113 68.317 l 83.082 68.36 l 83.055 68.392 l 83.02 68.435
 l 82.996 68.47 l 82.969 68.497 l 82.945 68.528 l 82.918 68.556 l 82.887
 68.579 l 82.859 68.607 l 82.832 68.622 l 82.809 68.649 l 82.781 68.665 
l 82.758 68.685 l 82.723 68.692 l 82.699 68.708 l 82.629 68.724 l 82.598
 68.743 l 82.555 68.751 l 82.52 68.751 l 82.477 68.759 l 82.426 68.767 l
 82.332 68.767 l 82.281 68.774 l 74.746 68.774 l 74.746 67.466 l 75.98 67.466
 l 76.617 67.466 77.461 67.423 78.098 67.38 c 79.074 67.255 79.109 67.212
 79.109 66.403 c 79.109 44.294 l 79.109 43.153 79.109 41.157 74.746 41.157
 c 74.746 39.845 l 84.664 39.845 l 84.664 41.157 l 80.301 41.157 80.301 
43.153 80.301 44.294 c 80.301 66.317 l 80.512 66.107 80.555 66.071 80.727
 65.817 c 98.004 40.399 l 98.387 39.888 98.43 39.845 98.727 39.845 c 99.324
 39.845 99.324 40.142 99.324 40.95 c 99.324 64.329 l 99.324 65.478 99.324
 67.466 103.688 67.466 c 103.688 68.774 l 93.77 68.774 l 93.77 67.466 l 
98.133 67.466 98.133 65.478 98.133 64.329 c 98.133 46.239 l h
83.184 68.232 m f*
107.188 54.337 m 107.207 53.521 l 107.266 52.712 l 107.367 51.931 l 107.496
 51.157 l 107.664 50.399 l 107.871 49.649 l 108.117 48.927 l 108.379 48.224
 l 108.688 47.54 l 109.02 46.868 l 109.383 46.224 l 109.773 45.603 l 110.191
 45.001 l 110.641 44.423 l 111.109 43.868 l 111.602 43.333 l 112.121 42.829
 l 112.664 42.353 l 113.227 41.903 l 113.805 41.478 l 114.402 41.087 l 115.02
 40.724 l 115.652 40.392 l 116.305 40.091 l 116.969 39.821 l 117.641 39.583
 l 118.34 39.38 l 119.035 39.216 l 119.75 39.079 l 120.465 38.985 l 121.195
 38.927 l 121.926 38.911 l 128.832 38.911 132.98 44.802 132.98 49.72 c 132.98
 50.146 132.98 50.435 132.438 50.435 c 131.969 50.435 131.969 50.189 131.926
 49.763 c 131.586 43.696 127.055 40.228 122.438 40.228 c 119.852 40.228 
111.551 41.665 111.551 54.286 c 111.551 66.958 119.809 68.392 122.395 68.392
 c 127.012 68.392 130.777 64.54 131.629 58.36 c 131.715 57.763 131.715 57.638
 132.309 57.638 c 132.98 57.638 132.98 57.763 132.98 58.657 c 132.98 68.692
 l 132.98 69.415 132.98 69.712 132.523 69.712 c 132.352 69.712 132.184 69.712
 131.844 69.2 c 129.727 66.071 l 128.16 67.595 126 69.712 121.926 69.712
 c 114.008 69.712 107.188 62.978 107.188 54.337 c h
107.188 54.337 m f*
150.406 39.294 m 149.395 39.294 l 149.309 38.638 149.012 36.888 148.629
 36.587 c 148.391 36.411 146.102 36.411 145.695 36.411 c 140.234 36.411 
l 143.348 39.173 144.387 39.997 146.164 41.392 c 148.355 43.146 150.406 
44.982 150.406 47.806 c 150.406 51.384 147.262 53.579 143.469 53.579 c 139.785
 53.579 137.301 51.005 137.301 48.274 c 137.301 46.759 138.578 46.614 138.867
 46.614 c 139.582 46.614 140.449 47.118 140.449 48.189 c 140.449 48.716 
140.234 49.763 138.695 49.763 c 139.613 51.86 141.629 52.517 143.023 52.517
 c 145.984 52.517 147.531 50.204 147.531 47.806 c 147.531 45.22 145.695 
43.169 144.742 42.107 c 137.598 35.048 l 137.301 34.786 137.301 34.728 137.301
 33.892 c 149.512 33.892 l h
150.406 39.294 m f*
0 0.6 1 rg
183.766 177.024 m 183.766 151.923 151.895 131.571 112.578 131.571 c 73.258
 131.571 41.387 151.923 41.387 177.024 c 41.387 202.126 73.258 222.478 112.578
 222.478 c 151.895 222.478 183.766 202.126 183.766 177.024 c h
183.766 177.024 m f
0 g
93.535 180.196 m 93.918 180.274 l 94.293 180.364 l 94.66 180.47 l 95.023
 180.579 l 95.371 180.708 l 95.715 180.833 l 96.043 180.978 l 96.367 181.13
 l 96.684 181.294 l 96.988 181.454 l 97.285 181.634 l 97.566 181.821 l 97.84
 182.017 l 98.102 182.22 l 98.359 182.423 l 98.598 182.646 l 98.824 182.868
 l 99.039 183.095 l 99.242 183.333 l 99.43 183.571 l 99.609 183.817 l 99.77
 184.075 l 99.914 184.329 l 100.051 184.591 l 100.168 184.864 l 100.27 185.138
 l 100.363 185.407 l 100.434 185.689 l 100.492 185.97 l 100.535 186.259 
l 100.559 186.548 l 100.57 186.845 l 100.57 190.528 96.676 193.997 91.164
 193.997 c 90.875 192.689 l 94.98 192.689 96.461 189.083 96.461 186.845 
c 96.461 184.126 94.387 180.571 89.684 180.571 c 83.543 180.571 l 83.543
 179.642 l 91.504 179.642 l 95.703 179.642 97.48 175.696 97.48 172.857 c
 97.48 169.857 95.281 166.376 90.918 166.376 c 85.617 166.376 l 83.629 166.376
 83.543 166.677 83.543 168.079 c 83.543 190.989 l 83.543 192.392 83.629 
192.689 85.617 192.689 c 90.875 192.689 l 91.164 193.997 l 75.66 193.997
 l 75.66 192.689 l 76.68 192.689 l 79.938 192.689 80.031 192.22 80.031 190.7
 c 80.031 168.376 l 80.031 166.845 79.938 166.376 76.68 166.376 c 75.66 
166.376 l 75.66 165.067 l 92.27 165.067 l 97.906 165.067 101.719 168.833
 101.719 172.821 c 101.719 176.505 98.238 179.677 93.535 180.196 c h
93.535 180.196 m f*
106.273 179.56 m 106.293 178.743 l 106.352 177.935 l 106.453 177.153 l 
106.582 176.376 l 106.75 175.622 l 106.957 174.872 l 107.203 174.149 l 107.465
 173.442 l 107.773 172.763 l 108.102 172.091 l 108.469 171.446 l 108.859
 170.825 l 109.277 170.22 l 109.727 169.642 l 110.195 169.091 l 110.688 
168.556 l 111.207 168.052 l 111.75 167.575 l 112.312 167.126 l 112.891 166.7
 l 113.488 166.31 l 114.105 165.942 l 114.738 165.61 l 115.391 165.314 l
 116.055 165.044 l 116.727 164.806 l 117.422 164.599 l 118.121 164.439 l
 118.836 164.302 l 119.551 164.208 l 120.281 164.149 l 121.012 164.134 l
 127.918 164.134 132.066 170.024 132.066 174.942 c 132.066 175.364 132.066
 175.653 131.523 175.653 c 131.055 175.653 131.055 175.407 131.012 174.982
 c 130.672 168.919 126.141 165.45 121.523 165.45 c 118.938 165.45 110.637
 166.888 110.637 179.509 c 110.637 192.177 118.895 193.614 121.48 193.614
 c 126.098 193.614 129.863 189.763 130.715 183.579 c 130.801 182.985 130.801
 182.857 131.395 182.857 c 132.066 182.857 132.066 182.985 132.066 183.88
 c 132.066 193.911 l 132.066 194.638 132.066 194.935 131.609 194.935 c 131.438
 194.935 131.27 194.935 130.93 194.423 c 128.809 191.294 l 127.246 192.817
 125.086 194.935 121.012 194.935 c 113.094 194.935 106.273 188.2 106.273
 179.56 c h
106.273 179.56 m f*
149.492 164.517 m 148.48 164.517 l 148.395 163.86 148.098 162.107 147.715
 161.81 c 147.477 161.634 145.188 161.634 144.781 161.634 c 139.32 161.634
 l 142.434 164.396 143.473 165.22 145.25 166.614 c 147.441 168.368 149.492
 170.204 149.492 173.028 c 149.492 176.607 146.344 178.802 142.555 178.802
 c 138.871 178.802 136.387 176.224 136.387 173.493 c 136.387 171.982 137.664
 171.837 137.953 171.837 c 138.668 171.837 139.535 172.337 139.535 173.411
 c 139.535 173.939 139.32 174.982 137.781 174.982 c 138.699 177.083 140.715
 177.739 142.109 177.739 c 145.07 177.739 146.617 175.427 146.617 173.028
 c 146.617 170.442 144.781 168.392 143.828 167.329 c 136.684 160.271 l 136.387
 160.009 136.387 159.946 136.387 159.114 c 148.598 159.114 l h
149.492 164.517 m f*
1.6 w
0 J
0 j
[ 6.4 6.4] 0 d
4 M q 1 0 0 -1 0 480.610413 cm
176.102 185.117 m 176.102 185.117 259.074 114.152 194.719 70.117 c 184.312
 63 l S Q
197.52 408.575 m 206.414 410.243 l 184.312 417.61 l 199.188 399.681 l h
197.52 408.575 m f*
1.320491 w
[] 0.0 d
q 1 -0.684211 -0.684211 -1 0 480.610413 cm
168.108 -42.986 m 173.389 -48.267 l 154.901 -42.985 l 173.389 -37.705 l
 h
168.108 -42.986 m S Q
1.6 w
[ 6.4 6.4] 0 d
q 1 0 0 -1 0 480.610413 cm
177.195 152.809 m 177.195 152.809 219.285 113.324 179.934 83.809 c 173.363
 78.879 l S Q
186.16 392.13 m 195.121 393.411 l 173.363 401.732 l 187.441 383.169 l h
186.16 392.13 m f*
1.28 w
[] 0.0 d
q 1 -0.749999 -0.749999 -1 0 480.610413 cm
161.613 -32.729 m 166.733 -37.851 l 148.814 -32.732 l 166.734 -27.609 l
 h
161.613 -32.729 m S Q
1.6 w
[ 6.4 6.4] 0 d
q 1 0 0 -1 0 480.610413 cm
176.648 201.547 m 176.648 201.547 271.77 282.477 201.84 378.426 c 178.289
 410.738 l S Q
187.715 82.806 m 186.312 91.747 l 178.289 69.872 l 196.656 84.208 l h
187.715 82.806 m f*
1.293029 w
[] 0.0 d
q 0.728814 1 1 -0.728814 0 480.610413 cm
-170.455 311.945 m -165.283 306.773 l -183.388 311.945 l -165.283 317.117
 l h
-170.455 311.945 m S Q
1.6 w
[ 6.4 6.4] 0 d
q 1 0 0 -1 0 480.610413 cm
47.41 433.738 m 47.41 433.738 -6.02 279.543 21.125 197.715 c 58.363 85.453
 l S Q
53.324 379.974 m 57.383 371.884 l 58.363 395.157 l 45.234 375.911 l h
53.324 379.974 m f*
1.518632 w
[] 0.0 d
q -0.331707 -1 -1 0.331707 0 480.610413 cm
74.727 -78.112 m 80.802 -84.185 l 59.542 -78.114 l 80.804 -72.038 l h
74.727 -78.112 m S Q
1.6 w
[ 6.4 6.4] 0 d
q 1 0 0 -1 0 480.610413 cm
108.742 385.547 m 109.84 350.5 l S Q
109.34 114.118 m 115.535 107.524 l 109.84 130.11 l 102.742 107.923 l h
109.34 114.118 m f*
1.599219 w
[] 0.0 d
q -0.0312499 -1 -1 0.0312499 0 480.610413 cm
362.721 -120.675 m 369.115 -127.07 l 346.729 -120.675 l 369.116 -114.277
 l h
362.721 -120.675 m S Q
1 0 0 rg
623.297 430.017 127.594 -84.879 re f
0 g
636.91 408.548 m 636.84 408.634 l 636.809 408.677 l 636.781 408.708 l 636.746
 408.751 l 636.723 408.786 l 636.695 408.81 l 636.672 408.845 l 636.645 
408.872 l 636.609 408.896 l 636.586 408.923 l 636.559 408.939 l 636.535 
408.966 l 636.508 408.982 l 636.484 408.997 l 636.449 409.005 l 636.426 
409.024 l 636.355 409.04 l 636.32 409.056 l 636.281 409.067 l 636.246 409.067
 l 636.203 409.075 l 636.152 409.083 l 636.059 409.083 l 636.008 409.091
 l 628.473 409.091 l 628.473 407.782 l 629.707 407.782 l 630.344 407.782
 631.188 407.739 631.824 407.696 c 632.801 407.571 632.836 407.528 632.836
 406.72 c 632.836 384.61 l 632.836 383.47 632.836 381.47 628.473 381.47 
c 628.473 380.161 l 638.387 380.161 l 638.387 381.47 l 634.027 381.47 634.027
 383.47 634.027 384.61 c 634.027 406.634 l 634.238 406.423 634.281 406.388
 634.453 406.134 c 651.73 380.716 l 652.113 380.204 652.156 380.161 652.453
 380.161 c 653.051 380.161 653.051 380.458 653.051 381.267 c 653.051 404.646
 l 653.051 405.794 653.051 407.782 657.41 407.782 c 657.41 409.091 l 647.496
 409.091 l 647.496 407.782 l 651.859 407.782 651.859 405.794 651.859 404.646
 c 651.859 386.556 l h
636.91 408.548 m f*
660.914 394.653 m 660.934 393.837 l 660.992 393.028 l 661.094 392.247 l
 661.223 391.47 l 661.391 390.716 l 661.598 389.966 l 661.844 389.243 l 
662.105 388.536 l 662.414 387.857 l 662.742 387.185 l 663.109 386.54 l 663.5
 385.919 l 663.918 385.314 l 664.367 384.735 l 664.836 384.185 l 665.328
 383.649 l 665.848 383.146 l 666.391 382.669 l 666.953 382.22 l 667.531 
381.794 l 668.125 381.403 l 668.746 381.036 l 669.379 380.704 l 670.031 
380.407 l 670.695 380.134 l 671.367 379.899 l 672.062 379.692 l 672.762 
379.532 l 673.477 379.396 l 674.191 379.302 l 674.922 379.243 l 675.652 
379.228 l 682.559 379.228 686.707 385.118 686.707 390.036 c 686.707 390.458
 686.707 390.747 686.164 390.747 c 685.695 390.747 685.695 390.501 685.652
 390.075 c 685.312 384.013 680.781 380.544 676.164 380.544 c 673.578 380.544
 665.277 381.982 665.277 394.603 c 665.277 407.271 673.535 408.708 676.121
 408.708 c 680.738 408.708 684.504 404.857 685.355 398.673 c 685.441 398.079
 685.441 397.95 686.035 397.95 c 686.707 397.95 686.707 398.079 686.707 
398.974 c 686.707 409.005 l 686.707 409.728 686.707 410.028 686.25 410.028
 c 686.078 410.028 685.91 410.028 685.57 409.517 c 683.449 406.388 l 681.887
 407.911 679.727 410.028 675.652 410.028 c 667.734 410.028 660.914 403.29
 660.914 394.653 c h
660.914 394.653 m f*
699.09 391.368 m 699.09 391.634 l 699.082 391.657 l 699.082 391.743 l 699.074
 391.759 l 699.074 391.814 l 699.062 391.837 l 699.062 391.872 l 699.047
 391.915 l 699.039 391.946 l 699.031 391.982 l 699.012 392.009 l 698.996
 392.032 l 698.98 392.06 l 698.953 392.083 l 698.938 392.103 l 698.91 392.118
 l 698.879 392.134 l 698.852 392.142 l 698.816 392.153 l 698.773 392.169
 l 698.734 392.169 l 698.715 392.177 l 698.691 392.177 l 698.664 392.185
 l 698.562 392.185 l 698.535 392.192 l 698.207 392.192 l 696.301 390.333
 693.605 390.298 692.387 390.298 c 692.387 389.235 l 693.102 389.235 695.059
 389.235 696.684 390.06 c 696.684 374.939 l 696.684 373.962 696.684 373.571
 693.723 373.571 c 692.594 373.571 l 692.594 372.509 l 703.18 372.509 l 
703.18 373.571 l 702.059 373.571 l 699.09 373.571 699.09 373.962 699.09 
374.939 c h
699.09 391.368 m f*
716.691 394.747 m 716.176 394.372 l 715.68 393.982 l 715.215 393.571 l 
714.77 393.153 l 714.348 392.732 l 713.945 392.298 l 713.562 391.853 l 713.207
 391.396 l 712.867 390.935 l 712.543 390.47 l 712.246 389.993 l 711.965 
389.517 l 711.699 389.032 l 711.453 388.548 l 711.234 388.052 l 711.02 387.56
 l 710.824 387.067 l 710.656 386.571 l 710.492 386.071 l 710.34 385.579 
l 710.211 385.083 l 710.094 384.591 l 709.992 384.107 l 709.898 383.614 
l 709.812 383.138 l 709.754 382.661 l 709.695 382.192 l 709.652 381.728 
l 709.617 381.267 l 709.594 380.825 l 709.582 380.384 l 709.574 379.95 l
 709.574 375.774 710.816 369.274 716.691 365.126 c 716.93 365.126 717.281
 365.126 717.281 365.474 c 717.281 365.661 717.195 365.72 716.992 365.927
 c 713.043 369.482 711.59 374.524 711.59 379.923 c 711.59 387.927 714.645
 391.837 717.074 394.04 c 717.195 394.149 717.281 394.243 717.281 394.388
 c 717.281 394.747 716.93 394.747 716.691 394.747 c h
716.691 394.747 m f*
728.852 391.368 m 728.852 391.634 l 728.844 391.657 l 728.844 391.743 l
 728.836 391.759 l 728.836 391.814 l 728.828 391.837 l 728.828 391.872 l
 728.812 391.915 l 728.801 391.946 l 728.793 391.982 l 728.777 392.009 l
 728.762 392.032 l 728.742 392.06 l 728.699 392.103 l 728.676 392.118 l 
728.641 392.134 l 728.582 392.153 l 728.539 392.169 l 728.496 392.169 l 
728.48 392.177 l 728.453 392.177 l 728.43 392.185 l 728.328 392.185 l 728.301
 392.192 l 727.969 392.192 l 726.062 390.333 723.367 390.298 722.152 390.298
 c 722.152 389.235 l 722.867 389.235 724.824 389.235 726.445 390.06 c 726.445
 374.939 l 726.445 373.962 726.445 373.571 723.488 373.571 c 722.355 373.571
 l 722.355 372.509 l 732.945 372.509 l 732.945 373.571 l 731.82 373.571 
l 728.852 373.571 728.852 373.962 728.852 374.939 c h
728.852 391.368 m f*
738.598 394.747 m 738.422 394.747 l 738.395 394.735 l 738.352 394.735 l
 738.328 394.728 l 738.301 394.72 l 738.285 394.72 l 738.258 394.712 l 738.242
 394.704 l 738.215 394.696 l 738.199 394.685 l 738.176 394.669 l 738.156
 394.661 l 738.141 394.642 l 738.121 394.634 l 738.098 394.61 l 738.098 
394.603 l 738.09 394.583 l 738.082 394.575 l 738.07 394.567 l 738.07 394.56
 l 738.062 394.54 l 738.062 394.532 l 738.055 394.524 l 738.055 394.509 
l 738.047 394.497 l 738.047 394.482 l 738.039 394.466 l 738.039 394.388 
l 738.039 394.243 738.121 394.149 738.301 393.946 c 740.852 391.607 743.703
 387.603 743.703 379.95 c 743.703 373.751 741.77 369.071 738.566 366.165
 c 738.062 365.661 738.039 365.63 738.039 365.474 c 738.039 365.329 738.121
 365.126 738.422 365.126 c 738.777 365.126 741.594 367.083 743.547 370.79
 c 744.859 373.247 745.719 376.454 745.719 379.923 c 745.719 384.099 744.465
 390.595 738.598 394.747 c h
738.598 394.747 m f*
1 0 0 rg
777.727 294.755 127.594 -84.879 re f
0 g
791.336 273.286 m 791.305 273.329 l 791.234 273.415 l 791.211 273.446 l
 791.176 273.489 l 791.148 273.524 l 791.125 273.548 l 791.098 273.583 l
 791.074 273.61 l 791.039 273.634 l 791.016 273.661 l 790.988 273.677 l 
790.961 273.704 l 790.938 273.72 l 790.91 273.735 l 790.879 273.747 l 790.852
 273.763 l 790.816 273.771 l 790.785 273.778 l 790.75 273.798 l 790.707 
273.806 l 790.672 273.806 l 790.633 273.814 l 790.582 273.821 l 790.488 
273.821 l 790.438 273.829 l 782.902 273.829 l 782.902 272.521 l 784.133 
272.521 l 784.773 272.521 785.613 272.478 786.25 272.435 c 787.23 272.31
 787.262 272.267 787.262 271.458 c 787.262 249.349 l 787.262 248.208 787.262
 246.208 782.902 246.208 c 782.902 244.899 l 792.816 244.899 l 792.816 246.208
 l 788.453 246.208 788.453 248.208 788.453 249.349 c 788.453 271.372 l 788.668
 271.161 788.711 271.126 788.879 270.872 c 806.16 245.454 l 806.543 244.942
 806.586 244.899 806.883 244.899 c 807.477 244.899 807.477 245.196 807.477
 246.005 c 807.477 269.384 l 807.477 270.532 807.477 272.521 811.84 272.521
 c 811.84 273.829 l 801.926 273.829 l 801.926 272.521 l 806.285 272.521 
806.285 270.532 806.285 269.384 c 806.285 251.294 l h
791.336 273.286 m f*
815.344 259.392 m 815.359 258.575 l 815.422 257.767 l 815.523 256.985 l
 815.648 256.212 l 815.82 255.454 l 816.023 254.704 l 816.27 253.982 l 816.535
 253.274 l 816.84 252.595 l 817.172 251.923 l 817.539 251.278 l 817.93 250.657
 l 818.344 250.052 l 818.797 249.474 l 819.266 248.923 l 819.758 248.388
 l 820.277 247.884 l 820.82 247.407 l 821.383 246.958 l 821.961 246.532 
l 822.555 246.142 l 823.176 245.774 l 823.805 245.442 l 824.461 245.146 
l 825.125 244.876 l 825.793 244.638 l 826.492 244.431 l 827.191 244.271 
l 827.902 244.134 l 828.617 244.04 l 829.348 243.982 l 830.082 243.966 l
 836.984 243.966 841.137 249.857 841.137 254.774 c 841.137 255.196 841.137
 255.485 840.59 255.485 c 840.125 255.485 840.125 255.239 840.082 254.814
 c 839.742 248.751 835.207 245.282 830.59 245.282 c 828.008 245.282 819.707
 246.72 819.707 259.341 c 819.707 272.009 827.965 273.446 830.547 273.446
 c 835.168 273.446 838.934 269.595 839.785 263.411 c 839.867 262.817 839.867
 262.689 840.465 262.689 c 841.137 262.689 841.137 262.817 841.137 263.712
 c 841.137 273.747 l 841.137 274.47 841.137 274.767 840.676 274.767 c 840.508
 274.767 840.336 274.767 839.996 274.255 c 837.879 271.126 l 836.312 272.649
 834.152 274.767 830.082 274.767 c 822.164 274.767 815.344 268.032 815.344
 259.392 c h
815.344 259.392 m f*
858.562 242.646 m 857.547 242.646 l 857.465 241.993 857.164 240.239 856.785
 239.942 c 856.547 239.763 854.258 239.763 853.848 239.763 c 848.391 239.763
 l 851.504 242.528 852.539 243.353 854.316 244.747 c 856.512 246.497 858.562
 248.337 858.562 251.157 c 858.562 254.739 855.414 256.935 851.621 256.935
 c 847.938 256.935 845.457 254.357 845.457 251.626 c 845.457 250.114 846.73
 249.97 847.02 249.97 c 847.734 249.97 848.602 250.47 848.602 251.54 c 848.602
 252.067 848.391 253.114 846.852 253.114 c 847.77 255.216 849.785 255.868
 851.18 255.868 c 854.137 255.868 855.688 253.556 855.688 251.157 c 855.688
 248.575 853.848 246.524 852.898 245.462 c 845.754 238.403 l 845.457 238.138
 845.457 238.079 845.457 237.247 c 857.668 237.247 l h
858.562 242.646 m f*
871.121 259.485 m 870.602 259.11 l 870.109 258.72 l 869.641 258.31 l 869.199
 257.896 l 868.773 257.47 l 868.375 257.036 l 867.992 256.591 l 867.633 
256.134 l 867.293 255.673 l 866.973 255.208 l 866.672 254.732 l 866.395 
254.255 l 866.129 253.771 l 865.883 253.286 l 865.66 252.79 l 865.449 252.298
 l 865.254 251.806 l 865.082 251.314 l 864.922 250.81 l 864.77 250.317 l
 864.641 249.825 l 864.523 249.329 l 864.418 248.845 l 864.328 248.353 l
 864.242 247.876 l 864.184 247.399 l 864.121 246.931 l 864.078 246.466 l
 864.047 246.005 l 864.02 245.564 l 864.012 245.122 l 864.004 244.689 l 
864.004 240.513 865.246 234.017 871.121 229.864 c 871.359 229.864 871.707
 229.864 871.707 230.212 c 871.707 230.399 871.621 230.462 871.418 230.665
 c 867.473 234.22 866.02 239.263 866.02 244.661 c 866.02 252.665 869.07 
256.575 871.504 258.778 c 871.621 258.888 871.707 258.982 871.707 259.126
 c 871.707 259.485 871.359 259.485 871.121 259.485 c h
871.121 259.485 m f*
883.281 256.107 m 883.281 256.372 l 883.273 256.396 l 883.273 256.482 l
 883.266 256.501 l 883.266 256.552 l 883.258 256.575 l 883.258 256.61 l 
883.238 256.653 l 883.23 256.685 l 883.223 256.72 l 883.203 256.747 l 883.188
 256.771 l 883.172 256.798 l 883.145 256.821 l 883.129 256.841 l 883.102
 256.857 l 883.07 256.872 l 883.043 256.88 l 883.008 256.892 l 882.969 256.907
 l 882.926 256.907 l 882.906 256.915 l 882.883 256.915 l 882.855 256.923
 l 882.754 256.923 l 882.73 256.935 l 882.398 256.935 l 880.492 255.071 
877.797 255.036 876.582 255.036 c 876.582 253.974 l 877.293 253.974 879.25
 253.974 880.875 254.798 c 880.875 239.677 l 880.875 238.7 880.875 238.31
 877.914 238.31 c 876.785 238.31 l 876.785 237.247 l 887.371 237.247 l 887.371
 238.31 l 886.25 238.31 l 883.281 238.31 883.281 238.7 883.281 239.677 c
 h
883.281 256.107 m f*
893.027 259.485 m 892.848 259.485 l 892.824 259.474 l 892.781 259.474 l
 892.754 259.466 l 892.73 259.458 l 892.711 259.458 l 892.688 259.45 l 892.668
 259.442 l 892.645 259.435 l 892.629 259.423 l 892.602 259.407 l 892.586
 259.399 l 892.566 259.384 l 892.551 259.372 l 892.535 259.357 l 892.523
 259.349 l 892.523 259.341 l 892.516 259.321 l 892.5 259.306 l 892.5 259.298
 l 892.492 259.278 l 892.492 259.271 l 892.484 259.263 l 892.484 259.247
 l 892.473 259.239 l 892.473 259.22 l 892.465 259.204 l 892.465 259.126 
l 892.465 258.982 892.551 258.888 892.73 258.685 c 895.281 256.345 898.129
 252.341 898.129 244.689 c 898.129 238.489 896.199 233.81 892.992 230.903
 c 892.492 230.399 892.465 230.368 892.465 230.212 c 892.465 230.067 892.551
 229.864 892.848 229.864 c 893.207 229.864 896.02 231.821 897.977 235.528
 c 899.285 237.985 900.145 241.192 900.145 244.661 c 900.145 248.837 898.895
 255.333 893.027 259.485 c h
893.027 259.485 m f*
0 0.6 1 rg
603.309 252.314 m 603.309 227.212 571.438 206.864 532.121 206.864 c 492.801
 206.864 460.93 227.212 460.93 252.314 c 460.93 277.419 492.801 297.767 
532.121 297.767 c 571.438 297.767 603.309 277.419 603.309 252.314 c h
603.309 252.314 m f
0 g
492.285 260.028 m 492.668 260.107 l 493.043 260.2 l 493.41 260.302 l 493.773
 260.411 l 494.125 260.54 l 494.465 260.665 l 494.797 260.81 l 495.117 260.962
 l 495.434 261.126 l 495.738 261.286 l 496.035 261.466 l 496.316 261.653
 l 496.59 261.849 l 496.852 262.052 l 497.109 262.255 l 497.348 262.478 
l 497.578 262.7 l 497.789 262.927 l 497.992 263.165 l 498.18 263.403 l 498.359
 263.649 l 498.52 263.907 l 498.664 264.161 l 498.801 264.427 l 498.918 
264.696 l 499.023 264.97 l 499.117 265.239 l 499.184 265.521 l 499.242 265.802
 l 499.285 266.091 l 499.312 266.38 l 499.32 266.677 l 499.32 270.36 495.426
 273.829 489.914 273.829 c 489.625 272.521 l 493.734 272.521 495.211 268.915
 495.211 266.677 c 495.211 263.958 493.137 260.403 488.434 260.403 c 482.293
 260.403 l 482.293 259.474 l 490.254 259.474 l 494.457 259.474 496.234 255.528
 496.234 252.689 c 496.234 249.689 494.031 246.208 489.668 246.208 c 484.371
 246.208 l 482.379 246.208 482.293 246.509 482.293 247.911 c 482.293 270.821
 l 482.293 272.224 482.379 272.521 484.371 272.521 c 489.625 272.521 l 489.914
 273.829 l 474.41 273.829 l 474.41 272.521 l 475.434 272.521 l 478.688 272.521
 478.781 272.052 478.781 270.532 c 478.781 248.208 l 478.781 246.677 478.688
 246.208 475.434 246.208 c 474.41 246.208 l 474.41 244.899 l 491.02 244.899
 l 496.656 244.899 500.469 248.669 500.469 252.657 c 500.469 256.337 496.988
 259.509 492.285 260.028 c h
492.285 260.028 m f*
505.027 259.392 m 505.043 258.575 l 505.102 257.767 l 505.203 256.985 l
 505.332 256.212 l 505.504 255.454 l 505.707 254.704 l 505.953 253.982 l
 506.215 253.274 l 506.523 252.595 l 506.855 251.923 l 507.219 251.278 l
 507.609 250.657 l 508.027 250.052 l 508.477 249.474 l 508.945 248.923 l
 509.438 248.388 l 509.957 247.884 l 510.504 247.407 l 511.062 246.958 l
 511.641 246.532 l 512.238 246.142 l 512.859 245.774 l 513.488 245.442 l
 514.141 245.146 l 514.805 244.876 l 515.477 244.638 l 516.176 244.431 l
 516.871 244.271 l 517.586 244.134 l 518.301 244.04 l 519.031 243.982 l 
519.762 243.966 l 526.668 243.966 530.816 249.857 530.816 254.774 c 530.816
 255.196 530.816 255.485 530.273 255.485 c 529.805 255.485 529.805 255.239
 529.766 254.814 c 529.422 248.751 524.891 245.282 520.273 245.282 c 517.688
 245.282 509.387 246.72 509.387 259.341 c 509.387 272.009 517.645 273.446
 520.23 273.446 c 524.848 273.446 528.617 269.595 529.465 263.411 c 529.551
 262.817 529.551 262.689 530.145 262.689 c 530.816 262.689 530.816 262.817
 530.816 263.712 c 530.816 273.747 l 530.816 274.47 530.816 274.767 530.359
 274.767 c 530.188 274.767 530.02 274.767 529.68 274.255 c 527.562 271.126
 l 525.996 272.649 523.836 274.767 519.762 274.767 c 511.848 274.767 505.027
 268.032 505.027 259.392 c h
505.027 259.392 m f*
543.199 256.107 m 543.199 256.372 l 543.191 256.396 l 543.191 256.482 l
 543.184 256.501 l 543.184 256.552 l 543.176 256.575 l 543.176 256.61 l 
543.156 256.653 l 543.148 256.685 l 543.141 256.72 l 543.125 256.747 l 543.105
 256.771 l 543.09 256.798 l 543.062 256.821 l 543.047 256.841 l 543.02 256.857
 l 542.988 256.872 l 542.961 256.88 l 542.93 256.892 l 542.887 256.907 l
 542.844 256.907 l 542.824 256.915 l 542.801 256.915 l 542.773 256.923 l
 542.672 256.923 l 542.648 256.935 l 542.316 256.935 l 540.41 255.071 537.715
 255.036 536.5 255.036 c 536.5 253.974 l 537.215 253.974 539.168 253.974
 540.793 254.798 c 540.793 239.677 l 540.793 238.7 540.793 238.31 537.832
 238.31 c 536.703 238.31 l 536.703 237.247 l 547.289 237.247 l 547.289 238.31
 l 546.168 238.31 l 543.199 238.31 543.199 238.7 543.199 239.677 c h
543.199 256.107 m f*
560.805 259.485 m 560.285 259.11 l 559.793 258.72 l 559.324 258.31 l 558.883
 257.896 l 558.457 257.47 l 558.055 257.036 l 557.672 256.591 l 557.316 
256.134 l 556.977 255.673 l 556.652 255.208 l 556.355 254.732 l 556.074 
254.255 l 555.812 253.771 l 555.566 253.286 l 555.344 252.79 l 555.133 252.298
 l 554.934 251.806 l 554.766 251.314 l 554.605 250.81 l 554.449 250.317 
l 554.324 249.825 l 554.203 249.329 l 554.102 248.845 l 554.008 248.353 
l 553.922 247.876 l 553.863 247.399 l 553.805 246.931 l 553.762 246.466 
l 553.727 246.005 l 553.703 245.564 l 553.695 245.122 l 553.684 244.689 
l 553.684 240.513 554.926 234.017 560.805 229.864 c 561.043 229.864 561.391
 229.864 561.391 230.212 c 561.391 230.399 561.305 230.462 561.102 230.665
 c 557.156 234.22 555.699 239.263 555.699 244.661 c 555.699 252.665 558.754
 256.575 561.188 258.778 c 561.305 258.888 561.391 258.982 561.391 259.126
 c 561.391 259.485 561.043 259.485 560.805 259.485 c h
560.805 259.485 m f*
572.965 256.107 m 572.965 256.372 l 572.957 256.396 l 572.957 256.482 l
 572.945 256.501 l 572.945 256.552 l 572.938 256.575 l 572.938 256.61 l 
572.922 256.653 l 572.914 256.685 l 572.902 256.72 l 572.887 256.747 l 572.871
 256.771 l 572.852 256.798 l 572.828 256.821 l 572.812 256.841 l 572.785
 256.857 l 572.75 256.872 l 572.691 256.892 l 572.648 256.907 l 572.605 
256.907 l 572.59 256.915 l 572.562 256.915 l 572.539 256.923 l 572.438 256.923
 l 572.41 256.935 l 572.078 256.935 l 570.176 255.071 567.48 255.036 566.262
 255.036 c 566.262 253.974 l 566.977 253.974 568.934 253.974 570.559 254.798
 c 570.559 239.677 l 570.559 238.7 570.559 238.31 567.598 238.31 c 566.465
 238.31 l 566.465 237.247 l 577.055 237.247 l 577.055 238.31 l 575.93 238.31
 l 572.965 238.31 572.965 238.7 572.965 239.677 c h
572.965 256.107 m f*
582.711 259.485 m 582.531 259.485 l 582.504 259.474 l 582.461 259.474 l
 582.438 259.466 l 582.41 259.458 l 582.395 259.458 l 582.367 259.45 l 582.352
 259.442 l 582.328 259.435 l 582.309 259.423 l 582.285 259.407 l 582.266
 259.399 l 582.25 259.384 l 582.234 259.372 l 582.215 259.357 l 582.207 
259.349 l 582.207 259.341 l 582.199 259.321 l 582.184 259.306 l 582.184 
259.298 l 582.172 259.278 l 582.172 259.271 l 582.164 259.263 l 582.164 
259.247 l 582.156 259.239 l 582.156 259.22 l 582.148 259.204 l 582.148 259.126
 l 582.148 258.982 582.234 258.888 582.41 258.685 c 584.961 256.345 587.812
 252.341 587.812 244.689 c 587.812 238.489 585.883 233.81 582.676 230.903
 c 582.172 230.399 582.148 230.368 582.148 230.212 c 582.148 230.067 582.234
 229.864 582.531 229.864 c 582.887 229.864 585.703 231.821 587.66 235.528
 c 588.969 237.985 589.828 241.192 589.828 244.661 c 589.828 248.837 588.578
 255.333 582.711 259.485 c h
582.711 259.485 m f*
0 0.6 1 rg
758.012 252.314 m 758.012 227.212 726.137 206.864 686.82 206.864 c 647.504
 206.864 615.633 227.212 615.633 252.314 c 615.633 277.419 647.504 297.767
 686.82 297.767 c 726.137 297.767 758.012 277.419 758.012 252.314 c h
758.012 252.314 m f
0 g
646.988 260.028 m 647.371 260.107 l 647.746 260.2 l 648.109 260.302 l 648.477
 260.411 l 648.824 260.54 l 649.164 260.665 l 649.496 260.81 l 649.82 260.962
 l 650.137 261.126 l 650.441 261.286 l 650.738 261.466 l 651.02 261.653 
l 651.293 261.849 l 651.555 262.052 l 651.809 262.255 l 652.047 262.478 
l 652.277 262.7 l 652.492 262.927 l 652.695 263.165 l 652.883 263.403 l 
653.059 263.649 l 653.223 263.907 l 653.367 264.161 l 653.504 264.427 l 
653.621 264.696 l 653.723 264.97 l 653.816 265.239 l 653.887 265.521 l 653.945
 265.802 l 653.988 266.091 l 654.012 266.38 l 654.02 266.677 l 654.02 270.36
 650.125 273.829 644.617 273.829 c 644.328 272.521 l 648.434 272.521 649.914
 268.915 649.914 266.677 c 649.914 263.958 647.84 260.403 643.137 260.403
 c 636.996 260.403 l 636.996 259.474 l 644.957 259.474 l 649.156 259.474
 650.934 255.528 650.934 252.689 c 650.934 249.689 648.73 246.208 644.371
 246.208 c 639.07 246.208 l 637.082 246.208 636.996 246.509 636.996 247.911
 c 636.996 270.821 l 636.996 272.224 637.082 272.521 639.07 272.521 c 644.328
 272.521 l 644.617 273.829 l 629.113 273.829 l 629.113 272.521 l 630.133
 272.521 l 633.391 272.521 633.484 272.052 633.484 270.532 c 633.484 248.208
 l 633.484 246.677 633.391 246.208 630.133 246.208 c 629.113 246.208 l 629.113
 244.899 l 645.723 244.899 l 651.359 244.899 655.168 248.669 655.168 252.657
 c 655.168 256.337 651.691 259.509 646.988 260.028 c h
646.988 260.028 m f*
659.727 259.392 m 659.746 258.575 l 659.805 257.767 l 659.906 256.985 l
 660.035 256.212 l 660.203 255.454 l 660.406 254.704 l 660.656 253.982 l
 660.918 253.274 l 661.223 252.595 l 661.555 251.923 l 661.922 251.278 l
 662.312 250.657 l 662.73 250.052 l 663.18 249.474 l 663.648 248.923 l 664.141
 248.388 l 664.66 247.884 l 665.203 247.407 l 665.766 246.958 l 666.344 
246.532 l 666.938 246.142 l 667.559 245.774 l 668.188 245.442 l 668.844 
245.146 l 669.508 244.876 l 670.18 244.638 l 670.875 244.431 l 671.574 244.271
 l 672.289 244.134 l 673.004 244.04 l 673.734 243.982 l 674.465 243.966 
l 681.371 243.966 685.52 249.857 685.52 254.774 c 685.52 255.196 685.52 
255.485 684.977 255.485 c 684.508 255.485 684.508 255.239 684.465 254.814
 c 684.125 248.751 679.594 245.282 674.977 245.282 c 672.391 245.282 664.09
 246.72 664.09 259.341 c 664.09 272.009 672.348 273.446 674.934 273.446 
c 679.551 273.446 683.316 269.595 684.168 263.411 c 684.254 262.817 684.254
 262.689 684.848 262.689 c 685.52 262.689 685.52 262.817 685.52 263.712 
c 685.52 273.747 l 685.52 274.47 685.52 274.767 685.062 274.767 c 684.891
 274.767 684.719 274.767 684.379 274.255 c 682.262 271.126 l 680.699 272.649
 678.539 274.767 674.465 274.767 c 666.547 274.767 659.727 268.032 659.727
 259.392 c h
659.727 259.392 m f*
697.902 256.107 m 697.902 256.372 l 697.895 256.396 l 697.895 256.482 l
 697.883 256.501 l 697.883 256.552 l 697.875 256.575 l 697.875 256.61 l 
697.859 256.653 l 697.852 256.685 l 697.844 256.72 l 697.824 256.747 l 697.809
 256.771 l 697.793 256.798 l 697.766 256.821 l 697.75 256.841 l 697.723 
256.857 l 697.688 256.872 l 697.629 256.892 l 697.586 256.907 l 697.543 
256.907 l 697.527 256.915 l 697.504 256.915 l 697.477 256.923 l 697.375 
256.923 l 697.348 256.935 l 697.016 256.935 l 695.113 255.071 692.418 255.036
 691.199 255.036 c 691.199 253.974 l 691.914 253.974 693.871 253.974 695.496
 254.798 c 695.496 239.677 l 695.496 238.7 695.496 238.31 692.535 238.31
 c 691.406 238.31 l 691.406 237.247 l 701.992 237.247 l 701.992 238.31 l
 700.871 238.31 l 697.902 238.31 697.902 238.7 697.902 239.677 c h
697.902 256.107 m f*
715.504 259.485 m 714.984 259.11 l 714.492 258.72 l 714.023 258.31 l 713.582
 257.896 l 713.156 257.47 l 712.758 257.036 l 712.375 256.591 l 712.02 256.134
 l 711.68 255.673 l 711.355 255.208 l 711.059 254.732 l 710.777 254.255 
l 710.512 253.771 l 710.266 253.286 l 710.047 252.79 l 709.832 252.298 l
 709.637 251.806 l 709.469 251.314 l 709.305 250.81 l 709.152 250.317 l 
709.023 249.825 l 708.906 249.329 l 708.805 248.845 l 708.711 248.353 l 
708.625 247.876 l 708.566 247.399 l 708.508 246.931 l 708.465 246.466 l 
708.43 246.005 l 708.402 245.564 l 708.395 245.122 l 708.387 244.689 l 708.387
 240.513 709.629 234.017 715.504 229.864 c 715.742 229.864 716.09 229.864
 716.09 230.212 c 716.09 230.399 716.008 230.462 715.801 230.665 c 711.855
 234.22 710.402 239.263 710.402 244.661 c 710.402 252.665 713.457 256.575
 715.887 258.778 c 716.008 258.888 716.09 258.982 716.09 259.126 c 716.09
 259.485 715.742 259.485 715.504 259.485 c h
715.504 259.485 m f*
732.707 242.646 m 731.695 242.646 l 731.613 241.993 731.312 240.239 730.93
 239.942 c 730.691 239.763 728.406 239.763 727.996 239.763 c 722.539 239.763
 l 725.648 242.528 726.688 243.353 728.465 244.747 c 730.66 246.497 732.707
 248.337 732.707 251.157 c 732.707 254.739 729.562 256.935 725.77 256.935
 c 722.086 256.935 719.605 254.357 719.605 251.626 c 719.605 250.114 720.879
 249.97 721.168 249.97 c 721.883 249.97 722.75 250.47 722.75 251.54 c 722.75
 252.067 722.539 253.114 721 253.114 c 721.918 255.216 723.934 255.868 725.328
 255.868 c 728.285 255.868 729.836 253.556 729.836 251.157 c 729.836 248.575
 727.996 246.524 727.043 245.462 c 719.902 238.403 l 719.605 238.138 719.605
 238.079 719.605 237.247 c 731.816 237.247 l h
732.707 242.646 m f*
737.41 259.485 m 737.234 259.485 l 737.207 259.474 l 737.164 259.474 l 
737.141 259.466 l 737.113 259.458 l 737.098 259.458 l 737.07 259.45 l 737.055
 259.442 l 737.027 259.435 l 737.012 259.423 l 736.984 259.407 l 736.969
 259.399 l 736.953 259.384 l 736.934 259.372 l 736.91 259.349 l 736.91 259.341
 l 736.902 259.321 l 736.891 259.314 l 736.883 259.306 l 736.883 259.298
 l 736.875 259.278 l 736.875 259.271 l 736.867 259.263 l 736.867 259.247
 l 736.859 259.239 l 736.859 259.22 l 736.852 259.204 l 736.852 259.126 
l 736.852 258.982 736.934 258.888 737.113 258.685 c 739.664 256.345 742.512
 252.341 742.512 244.689 c 742.512 238.489 740.582 233.81 737.379 230.903
 c 736.875 230.399 736.852 230.368 736.852 230.212 c 736.852 230.067 736.934
 229.864 737.234 229.864 c 737.59 229.864 740.406 231.821 742.359 235.528
 c 743.672 237.985 744.527 241.192 744.527 244.661 c 744.527 248.837 743.277
 255.333 737.41 259.485 c h
737.41 259.485 m f*
0 0.6 1 rg
983.355 110.482 m 983.355 85.38 951.484 65.028 912.164 65.028 c 872.848
 65.028 840.977 85.38 840.977 110.482 c 840.977 135.583 872.848 155.935 
912.164 155.935 c 951.484 155.935 983.355 135.583 983.355 110.482 c h
983.355 110.482 m f
0 g
872.332 118.196 m 872.715 118.271 l 873.09 118.364 l 873.457 118.466 l 
873.82 118.579 l 874.172 118.704 l 874.512 118.833 l 874.844 118.978 l 875.164
 119.13 l 875.48 119.294 l 875.785 119.454 l 876.082 119.634 l 876.363 119.821
 l 876.637 120.017 l 876.898 120.22 l 877.156 120.423 l 877.395 120.646 
l 877.621 120.864 l 877.836 121.095 l 878.039 121.333 l 878.227 121.571 
l 878.406 121.817 l 878.566 122.075 l 878.711 122.329 l 878.848 122.591 
l 878.965 122.864 l 879.066 123.138 l 879.16 123.407 l 879.23 123.689 l 
879.289 123.97 l 879.332 124.259 l 879.355 124.548 l 879.367 124.845 l 879.367
 128.528 875.473 131.997 869.961 131.997 c 869.672 130.689 l 873.777 130.689
 875.258 127.083 875.258 124.845 c 875.258 122.126 873.184 118.571 868.48
 118.571 c 862.34 118.571 l 862.34 117.642 l 870.301 117.642 l 874.5 117.642
 876.277 113.696 876.277 110.857 c 876.277 107.857 874.078 104.376 869.715
 104.376 c 864.414 104.376 l 862.426 104.376 862.34 104.673 862.34 106.079
 c 862.34 128.985 l 862.34 130.392 862.426 130.689 864.414 130.689 c 869.672
 130.689 l 869.961 131.997 l 854.457 131.997 l 854.457 130.689 l 855.477
 130.689 l 858.734 130.689 858.828 130.22 858.828 128.696 c 858.828 106.376
 l 858.828 104.845 858.734 104.376 855.477 104.376 c 854.457 104.376 l 854.457
 103.067 l 871.066 103.067 l 876.703 103.067 880.516 106.833 880.516 110.821
 c 880.516 114.505 877.035 117.677 872.332 118.196 c h
872.332 118.196 m f*
885.07 117.56 m 885.09 116.743 l 885.148 115.935 l 885.25 115.149 l 885.379
 114.376 l 885.547 113.622 l 885.754 112.872 l 886 112.149 l 886.262 111.442
 l 886.57 110.763 l 886.902 110.091 l 887.266 109.446 l 887.656 108.825 
l 888.074 108.22 l 888.523 107.642 l 888.992 107.091 l 889.484 106.552 l
 890.004 106.052 l 890.547 105.575 l 891.109 105.126 l 891.688 104.7 l 892.285
 104.31 l 892.902 103.942 l 893.535 103.61 l 894.188 103.314 l 894.852 103.04
 l 895.523 102.802 l 896.223 102.599 l 896.918 102.439 l 897.633 102.302
 l 898.348 102.208 l 899.078 102.149 l 899.809 102.13 l 906.715 102.13 910.863
 108.024 910.863 112.939 c 910.863 113.364 910.863 113.653 910.32 113.653
 c 909.852 113.653 909.852 113.407 909.809 112.982 c 909.469 106.919 904.938
 103.45 900.32 103.45 c 897.734 103.45 889.434 104.888 889.434 117.505 c
 889.434 130.177 897.691 131.614 900.277 131.614 c 904.895 131.614 908.66
 127.763 909.512 121.579 c 909.598 120.985 909.598 120.857 910.191 120.857
 c 910.863 120.857 910.863 120.985 910.863 121.876 c 910.863 131.911 l 910.863
 132.634 910.863 132.935 910.406 132.935 c 910.234 132.935 910.066 132.935
 909.727 132.423 c 907.609 129.294 l 906.043 130.814 903.883 132.935 899.809
 132.935 c 891.891 132.935 885.07 126.196 885.07 117.56 c h
885.07 117.56 m f*
928.289 100.814 m 927.277 100.814 l 927.191 100.157 926.895 98.407 926.512
 98.11 c 926.273 97.931 923.984 97.931 923.578 97.931 c 918.117 97.931 l
 921.23 100.696 922.27 101.521 924.047 102.915 c 926.238 104.665 928.289
 106.501 928.289 109.325 c 928.289 112.907 925.145 115.099 921.352 115.099
 c 917.668 115.099 915.184 112.524 915.184 109.794 c 915.184 108.278 916.461
 108.134 916.75 108.134 c 917.465 108.134 918.332 108.638 918.332 109.708
 c 918.332 110.235 918.117 111.282 916.578 111.282 c 917.496 113.384 919.512
 114.036 920.906 114.036 c 923.867 114.036 925.414 111.724 925.414 109.325
 c 925.414 106.739 923.578 104.692 922.625 103.63 c 915.48 96.571 l 915.184
 96.306 915.184 96.247 915.184 95.415 c 927.395 95.415 l h
928.289 100.814 m f*
940.848 117.649 m 940.332 117.278 l 939.836 116.888 l 939.371 116.478 l
 938.926 116.06 l 938.504 115.638 l 938.102 115.2 l 937.719 114.759 l 937.363
 114.302 l 937.023 113.841 l 936.699 113.372 l 936.402 112.899 l 936.121
 112.423 l 935.859 111.939 l 935.609 111.45 l 935.391 110.958 l 935.176 
110.466 l 934.98 109.974 l 934.812 109.478 l 934.648 108.978 l 934.496 108.485
 l 934.371 107.989 l 934.25 107.497 l 934.148 107.013 l 934.055 106.521 
l 933.969 106.044 l 933.91 105.567 l 933.852 105.099 l 933.809 104.63 l 
933.773 104.173 l 933.75 103.732 l 933.738 103.286 l 933.73 102.853 l 933.73
 98.681 934.973 92.181 940.848 88.032 c 941.086 88.032 941.438 88.032 941.438
 88.38 c 941.438 88.567 941.352 88.626 941.148 88.833 c 937.203 92.388 935.746
 97.431 935.746 102.829 c 935.746 110.829 938.801 114.743 941.23 116.946
 c 941.352 117.056 941.438 117.149 941.438 117.294 c 941.438 117.649 941.086
 117.649 940.848 117.649 c h
940.848 117.649 m f*
953.012 114.274 m 953.012 114.54 l 953 114.564 l 953 114.649 l 952.992 
114.665 l 952.992 114.716 l 952.984 114.743 l 952.984 114.778 l 952.969 
114.821 l 952.957 114.853 l 952.949 114.888 l 952.934 114.911 l 952.918 
114.939 l 952.898 114.966 l 952.875 114.989 l 952.855 115.005 l 952.832 
115.024 l 952.797 115.04 l 952.773 115.048 l 952.738 115.056 l 952.695 115.075
 l 952.652 115.075 l 952.637 115.083 l 952.609 115.083 l 952.586 115.091
 l 952.484 115.091 l 952.457 115.099 l 952.125 115.099 l 950.223 113.239
 947.523 113.204 946.309 113.204 c 946.309 112.142 l 947.023 112.142 948.98
 112.142 950.602 112.966 c 950.602 97.845 l 950.602 96.868 950.602 96.478
 947.645 96.478 c 946.512 96.478 l 946.512 95.415 l 957.102 95.415 l 957.102
 96.478 l 955.977 96.478 l 953.012 96.478 953.012 96.868 953.012 97.845 
c h
953.012 114.274 m f*
962.754 117.649 m 962.578 117.649 l 962.551 117.642 l 962.508 117.642 l
 962.484 117.634 l 962.457 117.626 l 962.441 117.626 l 962.414 117.618 l
 962.398 117.61 l 962.371 117.599 l 962.355 117.591 l 962.332 117.575 l 
962.312 117.567 l 962.297 117.548 l 962.277 117.54 l 962.254 117.517 l 962.254
 117.505 l 962.246 117.489 l 962.238 117.482 l 962.227 117.474 l 962.227
 117.466 l 962.219 117.446 l 962.219 117.439 l 962.211 117.431 l 962.211
 117.415 l 962.203 117.403 l 962.203 117.388 l 962.195 117.372 l 962.195
 117.294 l 962.195 117.149 962.277 117.056 962.457 116.853 c 965.008 114.513
 967.859 110.509 967.859 102.853 c 967.859 96.653 965.926 91.978 962.723
 89.071 c 962.219 88.567 962.195 88.532 962.195 88.38 c 962.195 88.235 962.277
 88.032 962.578 88.032 c 962.934 88.032 965.75 89.989 967.703 93.696 c 969.016
 96.153 969.875 99.36 969.875 102.829 c 969.875 107.005 968.625 113.501 
962.754 117.649 c h
962.754 117.649 m f*
0 0.6 1 rg
827.832 110.482 m 827.832 85.38 795.961 65.028 756.641 65.028 c 717.324
 65.028 685.453 85.38 685.453 110.482 c 685.453 135.583 717.324 155.935 
756.641 155.935 c 795.961 155.935 827.832 135.583 827.832 110.482 c h
827.832 110.482 m f
0 g
716.809 118.196 m 717.191 118.271 l 717.566 118.364 l 717.934 118.466 l
 718.297 118.579 l 718.648 118.704 l 718.988 118.833 l 719.32 118.978 l 
719.641 119.13 l 719.957 119.294 l 720.262 119.454 l 720.559 119.634 l 720.84
 119.821 l 721.113 120.017 l 721.375 120.22 l 721.633 120.423 l 721.871 
120.646 l 722.098 120.864 l 722.312 121.095 l 722.516 121.333 l 722.703 
121.571 l 722.883 121.817 l 723.043 122.075 l 723.188 122.329 l 723.324 
122.591 l 723.441 122.864 l 723.547 123.138 l 723.637 123.407 l 723.707 
123.689 l 723.766 123.97 l 723.809 124.259 l 723.836 124.548 l 723.844 124.845
 l 723.844 128.528 719.949 131.997 714.438 131.997 c 714.148 130.689 l 718.254
 130.689 719.734 127.083 719.734 124.845 c 719.734 122.126 717.66 118.571
 712.957 118.571 c 706.816 118.571 l 706.816 117.642 l 714.777 117.642 l
 718.977 117.642 720.754 113.696 720.754 110.857 c 720.754 107.857 718.555
 104.376 714.191 104.376 c 708.895 104.376 l 706.902 104.376 706.816 104.673
 706.816 106.079 c 706.816 128.985 l 706.816 130.392 706.902 130.689 708.895
 130.689 c 714.148 130.689 l 714.438 131.997 l 698.934 131.997 l 698.934
 130.689 l 699.953 130.689 l 703.211 130.689 703.305 130.22 703.305 128.696
 c 703.305 106.376 l 703.305 104.845 703.211 104.376 699.953 104.376 c 698.934
 104.376 l 698.934 103.067 l 715.543 103.067 l 721.18 103.067 724.992 106.833
 724.992 110.821 c 724.992 114.505 721.512 117.677 716.809 118.196 c h
716.809 118.196 m f*
729.547 117.56 m 729.566 116.743 l 729.625 115.935 l 729.727 115.149 l 
729.855 114.376 l 730.023 113.622 l 730.23 112.872 l 730.477 112.149 l 730.738
 111.442 l 731.047 110.763 l 731.379 110.091 l 731.742 109.446 l 732.133
 108.825 l 732.551 108.22 l 733 107.642 l 733.469 107.091 l 733.961 106.552
 l 734.48 106.052 l 735.023 105.575 l 735.586 105.126 l 736.164 104.7 l 
736.762 104.31 l 737.383 103.942 l 738.012 103.61 l 738.664 103.314 l 739.328
 103.04 l 740 102.802 l 740.699 102.599 l 741.395 102.439 l 742.109 102.302
 l 742.824 102.208 l 743.555 102.149 l 744.285 102.13 l 751.191 102.13 755.34
 108.024 755.34 112.939 c 755.34 113.364 755.34 113.653 754.797 113.653 
c 754.328 113.653 754.328 113.407 754.285 112.982 c 753.945 106.919 749.414
 103.45 744.797 103.45 c 742.211 103.45 733.91 104.888 733.91 117.505 c 
733.91 130.177 742.168 131.614 744.754 131.614 c 749.371 131.614 753.141
 127.763 753.988 121.579 c 754.074 120.985 754.074 120.857 754.668 120.857
 c 755.34 120.857 755.34 120.985 755.34 121.876 c 755.34 131.911 l 755.34
 132.634 755.34 132.935 754.883 132.935 c 754.711 132.935 754.543 132.935
 754.203 132.423 c 752.086 129.294 l 750.52 130.814 748.359 132.935 744.285
 132.935 c 736.367 132.935 729.547 126.196 729.547 117.56 c h
729.547 117.56 m f*
767.723 114.274 m 767.723 114.54 l 767.715 114.564 l 767.715 114.649 l 
767.707 114.665 l 767.707 114.716 l 767.699 114.743 l 767.699 114.778 l 
767.68 114.821 l 767.672 114.853 l 767.664 114.888 l 767.645 114.911 l 767.613
 114.966 l 767.586 114.989 l 767.57 115.005 l 767.543 115.024 l 767.512 
115.04 l 767.484 115.048 l 767.449 115.056 l 767.41 115.075 l 767.367 115.075
 l 767.348 115.083 l 767.324 115.083 l 767.297 115.091 l 767.195 115.091
 l 767.172 115.099 l 766.84 115.099 l 764.934 113.239 762.238 113.204 761.023
 113.204 c 761.023 112.142 l 761.734 112.142 763.691 112.142 765.316 112.966
 c 765.316 97.845 l 765.316 96.868 765.316 96.478 762.355 96.478 c 761.227
 96.478 l 761.227 95.415 l 771.812 95.415 l 771.812 96.478 l 770.691 96.478
 l 767.723 96.478 767.723 96.868 767.723 97.845 c h
767.723 114.274 m f*
785.324 117.649 m 784.809 117.278 l 784.312 116.888 l 783.848 116.478 l
 783.402 116.06 l 782.98 115.638 l 782.578 115.2 l 782.195 114.759 l 781.84
 114.302 l 781.5 113.841 l 781.176 113.372 l 780.879 112.899 l 780.598 112.423
 l 780.336 111.939 l 780.086 111.45 l 779.867 110.958 l 779.652 110.466 
l 779.457 109.974 l 779.289 109.478 l 779.125 108.978 l 778.973 108.485 
l 778.848 107.989 l 778.727 107.497 l 778.625 107.013 l 778.531 106.521 
l 778.445 106.044 l 778.387 105.567 l 778.328 105.099 l 778.285 104.63 l
 778.25 104.173 l 778.227 103.732 l 778.219 103.286 l 778.207 102.853 l 
778.207 98.681 779.449 92.181 785.324 88.032 c 785.562 88.032 785.914 88.032
 785.914 88.38 c 785.914 88.567 785.828 88.626 785.625 88.833 c 781.68 92.388
 780.223 97.431 780.223 102.829 c 780.223 110.829 783.277 114.743 785.707
 116.946 c 785.828 117.056 785.914 117.149 785.914 117.294 c 785.914 117.649
 785.562 117.649 785.324 117.649 c h
785.324 117.649 m f*
795.648 105.314 m 795.863 105.314 l 796.074 105.294 l 796.277 105.278 l
 796.484 105.243 l 796.68 105.2 l 796.875 105.149 l 797.062 105.091 l 797.25
 105.013 l 797.426 104.939 l 797.598 104.845 l 797.758 104.751 l 797.922
 104.642 l 798.074 104.528 l 798.227 104.403 l 798.371 104.267 l 798.5 104.122
 l 798.633 103.97 l 798.754 103.798 l 798.863 103.63 l 798.977 103.45 l 
799.078 103.255 l 799.172 103.06 l 799.246 102.845 l 799.324 102.626 l 799.391
 102.396 l 799.449 102.157 l 799.504 101.911 l 799.543 101.657 l 799.578
 101.392 l 799.605 101.118 l 799.621 100.841 l 799.621 100.54 l 799.621 
96.868 797.488 95.771 795.77 95.771 c 794.586 95.771 791.977 96.095 790.727
 97.845 c 792.121 97.903 792.445 98.884 792.445 99.505 c 792.445 100.458
 791.738 101.138 790.82 101.138 c 789.984 101.138 789.152 100.634 789.152
 99.419 c 789.152 96.63 792.238 94.817 795.828 94.817 c 799.945 94.817 802.793
 97.583 802.793 100.54 c 802.793 102.853 800.898 105.169 797.633 105.849
 c 800.754 106.978 801.875 109.2 801.875 111.009 c 801.875 113.357 799.18
 115.099 795.887 115.099 c 792.598 115.099 790.078 113.501 790.078 111.13
 c 790.078 110.126 790.727 109.556 791.617 109.556 c 792.539 109.556 793.125
 110.235 793.125 111.067 c 793.125 111.927 792.539 112.556 791.617 112.607
 c 792.656 113.919 794.699 114.239 795.805 114.239 c 797.129 114.239 799
 113.595 799 111.009 c 799 109.767 798.582 108.399 797.82 107.482 c 796.832
 106.357 796.008 106.298 794.527 106.204 c 793.777 106.146 793.719 106.146
 793.574 106.118 c 793.516 106.118 793.277 106.06 793.277 105.728 c 793.277
 105.314 793.539 105.314 794.051 105.314 c h
795.648 105.314 m f*
807.23 117.649 m 807.055 117.649 l 807.027 117.642 l 806.984 117.642 l 
806.961 117.634 l 806.934 117.626 l 806.918 117.626 l 806.891 117.618 l 
806.875 117.61 l 806.848 117.599 l 806.832 117.591 l 806.809 117.575 l 806.789
 117.567 l 806.773 117.548 l 806.758 117.54 l 806.738 117.524 l 806.73 117.517
 l 806.73 117.505 l 806.723 117.489 l 806.715 117.482 l 806.703 117.474 
l 806.703 117.466 l 806.695 117.446 l 806.695 117.439 l 806.688 117.431 
l 806.688 117.415 l 806.68 117.403 l 806.68 117.388 l 806.672 117.372 l 
806.672 117.294 l 806.672 117.149 806.758 117.056 806.934 116.853 c 809.484
 114.513 812.336 110.509 812.336 102.853 c 812.336 96.653 810.402 91.978
 807.199 89.071 c 806.695 88.567 806.672 88.532 806.672 88.38 c 806.672 
88.235 806.758 88.032 807.055 88.032 c 807.41 88.032 810.227 89.989 812.18
 93.696 c 813.492 96.153 814.352 99.36 814.352 102.829 c 814.352 107.005
 813.102 113.501 807.23 117.649 c h
807.23 117.649 m f*
1.6 w
q 1 0 0 -1 0 480.610413 cm
642.191 136.297 m 574.832 189.414 l S Q
587.398 301.103 m 588.461 310.091 l 574.832 291.196 l 596.387 300.04 l 
h
587.398 301.103 m f*
1.256335 w
q 1 0.788618 0.788618 -1 0 480.610413 cm
274.882 396.284 m 279.907 391.259 l 262.317 396.282 l 279.907 401.31 l 
h
274.882 396.284 m S Q
1.6 w
q 1 0 0 -1 0 480.610413 cm
733.641 137.391 m 796.617 184.484 l S Q
783.805 305.708 m 774.848 304.415 l 796.617 296.126 l 782.512 314.665 l
 h
783.805 305.708 m f*
1.281336 w
q -1 0.747826 0.747826 1 0 480.610413 cm
-586.567 263.748 m -581.443 258.623 l -599.38 263.748 l -581.442 268.872
 l h
-586.567 263.748 m S Q
1.6 w
q 1 0 0 -1 0 480.610413 cm
810.855 270.461 m 781.832 325.223 l S Q
789.324 169.524 m 786.668 178.177 l 781.832 155.388 l 797.977 172.181 l
 h
789.324 169.524 m f*
1.413717 w
q 0.53 1 1 -0.53 0 480.610413 cm
83.735 744.945 m 89.391 739.291 l 69.598 744.945 l 89.389 750.601 l h
83.735 744.945 m S Q
1.6 w
q 1 0 0 -1 0 480.610413 cm
867.809 271.559 m 891.355 325.223 l S Q
884.926 170.04 m 876.496 173.329 l 891.355 155.388 l 888.215 178.47 l h
884.926 170.04 m f*
1.465165 w
q -0.438776 1 1 0.438776 0 480.610413 cm
-586.029 627.79 m -580.17 621.932 l -600.682 627.791 l -580.171 633.65 
l h
-586.029 627.79 m S Q
1.6 w
q 1 0 0 -1 0 480.610413 cm
686.055 135.801 m 686 182.297 l S Q
686.02 314.314 m 679.625 320.724 l 686 298.314 l 692.426 320.708 l h
686.02 314.314 m f*
1.599999 w
q 0.00115112 1 1 -0.00115112 0 480.610413 cm
-165.507 686.21 m -159.104 679.808 l -181.507 686.209 l -159.105 692.609
 l h
-165.507 686.21 m S Q
401.867 263.314 m 402.496 262.591 l 403.141 261.888 l 403.781 261.208 l
 404.441 260.571 l 405.098 259.958 l 405.758 259.341 l 406.414 258.794 l
 407.059 258.243 l 407.703 257.716 l 408.328 257.235 l 408.957 256.774 l
 409.551 256.333 l 410.133 255.939 l 410.695 255.567 l 410.965 255.392 l
 411.465 255.04 l 411.715 254.888 l 408.91 253.153 405.082 250.298 401.867
 246.482 c 352.273 246.482 l 350.957 246.482 349.469 246.482 349.469 244.286
 c 349.469 242.091 350.879 242.091 352.195 242.091 c 398.355 242.091 l 394.609
 237.064 390.547 227.45 390.547 226.024 c 390.547 224.817 391.566 224.817
 392.039 224.817 c 392.664 224.817 393.215 224.817 393.527 225.692 c 395.156
 229.864 397.336 235.657 402.418 241.982 c 407.812 248.653 413.047 251.614
 417.109 253.263 c 418.441 253.899 418.504 254.009 418.676 254.251 c 418.82
 254.337 418.82 254.689 418.82 254.888 c 418.82 255.107 418.82 255.325 418.754
 255.544 c 418.504 255.763 l 418.363 255.872 418.27 255.985 416.797 256.642
 c 406.242 261.009 398.434 270.974 394.059 282.673 c 393.215 284.845 393.137
 284.958 392.039 284.958 c 391.566 284.958 390.547 284.958 390.547 283.771
 c 390.547 282.345 394.531 272.817 398.355 267.681 c 352.195 267.681 l 350.879
 267.681 349.469 267.681 349.469 265.509 c 349.469 263.314 350.957 263.314
 352.273 263.314 c h
401.867 263.314 m f*
0 0.6 0 rg
246.934 290.396 m 247.418 290.396 l 247.496 290.407 l 247.574 290.407 l
 247.652 290.415 l 247.723 290.427 l 247.801 290.435 l 247.867 290.446 l
 247.938 290.454 l 248.004 290.474 l 248.074 290.493 l 248.133 290.513 l
 248.199 290.544 l 248.246 290.564 l 248.305 290.603 l 248.355 290.63 l 
248.402 290.669 l 248.453 290.708 l 248.492 290.759 l 248.531 290.806 l 
248.559 290.857 l 248.578 290.884 l 248.59 290.915 l 248.609 290.942 l 248.617
 290.982 l 248.629 291.009 l 248.637 291.04 l 248.648 291.079 l 248.656 
291.118 l 248.668 291.157 l 248.668 291.196 l 248.676 291.235 l 248.676 
291.36 l 248.676 292.337 247.809 292.337 246.934 292.337 c 210.848 292.337
 l 213.52 294.376 214.824 296.372 215.215 296.997 c 217.41 300.353 217.789
 303.411 217.789 303.462 c 217.789 304.036 217.215 304.036 216.824 304.036
 c 215.996 304.036 215.945 303.95 215.75 303.071 c 214.641 298.314 211.766
 294.278 206.285 291.997 c 205.75 291.802 205.555 291.704 205.555 291.36
 c 205.555 291.028 205.797 290.923 206.285 290.728 c 211.336 288.642 214.582
 284.86 215.801 279.419 c 215.945 278.833 215.996 278.689 216.824 278.689
 c 217.215 278.689 217.789 278.689 217.789 279.271 c 217.789 279.368 217.352
 282.431 215.312 285.677 c 214.336 287.142 212.934 288.837 210.848 290.396
 c h
246.934 290.396 m f*
274.816 290.396 m 275.273 290.396 l 275.352 290.407 l 275.43 290.407 l 
275.5 290.415 l 275.578 290.427 l 275.645 290.435 l 275.715 290.446 l 275.781
 290.454 l 275.852 290.474 l 275.91 290.493 l 275.977 290.513 l 276.035 
290.544 l 276.086 290.564 l 276.141 290.603 l 276.191 290.63 l 276.238 290.669
 l 276.289 290.708 l 276.328 290.759 l 276.367 290.806 l 276.375 290.825
 l 276.395 290.857 l 276.414 290.884 l 276.426 290.915 l 276.445 290.942
 l 276.453 290.982 l 276.465 291.009 l 276.473 291.04 l 276.484 291.079 
l 276.492 291.118 l 276.492 291.157 l 276.504 291.196 l 276.504 291.235 
l 276.512 291.274 l 276.512 291.36 l 276.512 292.337 275.637 292.337 274.816
 292.337 c 248.539 292.337 l 247.711 292.337 246.836 292.337 246.836 291.36
 c 246.836 290.396 247.711 290.396 248.539 290.396 c h
274.816 290.396 m f*
235.762 320.989 m 235.762 325.649 l 229.867 325.185 l 229.867 323.872 l
 232.836 323.872 233.176 323.575 233.176 321.501 c 233.176 310.149 l 233.176
 308.235 232.707 308.235 229.867 308.235 c 229.867 306.927 l 240.078 306.927
 l 240.078 308.235 l 239.195 308.235 l 236.059 308.235 235.973 308.704 235.973
 310.235 c 235.973 316.747 l 235.973 320.95 237.75 324.716 240.973 324.716
 c 241.262 324.716 241.348 324.716 241.434 324.673 c 241.305 324.63 240.461
 324.122 240.461 323.024 c 240.461 321.841 241.348 321.204 242.281 321.204
 c 243.047 321.204 244.102 321.704 244.102 323.067 c 244.102 324.419 242.793
 325.649 240.973 325.649 c 237.879 325.649 236.355 322.81 235.762 320.989
 c h
235.762 320.989 m f*
264.793 315.989 m 264.785 316.493 l 264.742 316.993 l 264.684 317.489 l
 264.605 317.974 l 264.496 318.45 l 264.367 318.915 l 264.223 319.376 l 
264.051 319.825 l 263.867 320.267 l 263.652 320.692 l 263.434 321.11 l 263.184
 321.509 l 262.922 321.899 l 262.641 322.274 l 262.344 322.634 l 262.039
 322.982 l 261.707 323.314 l 261.367 323.618 l 261.016 323.915 l 260.641
 324.196 l 260.27 324.454 l 259.879 324.7 l 259.469 324.919 l 259.062 325.114
 l 258.637 325.294 l 258.203 325.454 l 257.758 325.591 l 257.309 325.704
 l 256.852 325.786 l 256.383 325.857 l 255.906 325.888 l 255.43 325.907 
l 255.387 324.97 l 257.25 324.97 259.078 324.036 260.176 322.216 c 261.281
 320.396 261.281 317.939 261.281 316.329 c 261.281 314.81 261.281 312.513
 260.344 310.649 c 259.418 308.747 257.555 307.521 255.43 307.521 c 253.609
 307.521 251.746 308.407 250.598 310.36 c 249.543 312.224 249.543 314.81
 249.543 316.329 c 249.543 317.982 249.543 320.267 250.566 322.13 c 251.703
 324.087 253.695 324.97 255.387 324.97 c 255.43 325.907 l 250.141 325.907
 246.023 321.29 246.023 315.989 c 246.023 310.524 250.43 306.458 255.387
 306.458 c 260.516 306.458 264.793 310.607 264.793 315.989 c h
264.793 315.989 m f*
286.902 315.989 m 286.895 316.493 l 286.852 316.993 l 286.793 317.489 l
 286.715 317.974 l 286.605 318.45 l 286.477 318.915 l 286.332 319.376 l 
286.164 319.825 l 285.977 320.267 l 285.762 320.692 l 285.543 321.11 l 285.297
 321.509 l 285.031 321.899 l 284.75 322.274 l 284.453 322.634 l 284.148 
322.982 l 283.816 323.314 l 283.477 323.618 l 283.125 323.915 l 282.754 
324.196 l 282.379 324.454 l 281.988 324.7 l 281.578 324.919 l 281.172 325.114
 l 280.746 325.294 l 280.312 325.454 l 279.871 325.591 l 279.418 325.704
 l 278.961 325.786 l 278.492 325.857 l 278.016 325.888 l 277.539 325.907
 l 277.496 324.97 l 279.359 324.97 281.188 324.036 282.285 322.216 c 283.391
 320.396 283.391 317.939 283.391 316.329 c 283.391 314.81 283.391 312.513
 282.457 310.649 c 281.527 308.747 279.664 307.521 277.539 307.521 c 275.719
 307.521 273.859 308.407 272.711 310.36 c 271.656 312.224 271.656 314.81
 271.656 316.329 c 271.656 317.982 271.656 320.267 272.676 322.13 c 273.816
 324.087 275.805 324.97 277.496 324.97 c 277.539 325.907 l 272.25 325.907
 268.133 321.29 268.133 315.989 c 268.133 310.524 272.539 306.458 277.496
 306.458 c 282.625 306.458 286.902 310.607 286.902 315.989 c h
286.902 315.989 m f*
295.543 323.872 m 301.598 323.872 l 301.598 325.185 l 295.543 325.185 l
 295.543 332.982 l 294.48 332.982 l 294.438 329.505 293.172 324.97 289.02
 324.802 c 289.02 323.872 l 292.617 323.872 l 292.617 312.181 l 292.617 
306.97 296.555 306.458 298.078 306.458 c 301.098 306.458 302.277 309.47 
302.277 312.181 c 302.277 314.595 l 301.215 314.595 l 301.215 312.267 l 
301.215 309.13 299.949 307.521 298.383 307.521 c 295.543 307.521 295.543
 311.372 295.543 312.095 c h
295.543 323.872 m f*
Q Q
showpage
%%Trailer
end restore
%%EOF
